Personal details of the participant: 
Age - 19 years
Standard - Second year of graduation
Sex - Female
Mother tongue - Marathi
Medium of instruction in school - English
--------------------------------------------
NOTE
Process 1: Correction of spelling and grammatical mistakes
Process 2: Removing proper nouns and borrowed words
Process 3: Lemmatization
        S: Sentence
       T1: Original text
       T2: Output obtained after correction of spelling and grammatical mistakes in T1
       T3: Output obtained after removal of proper nouns and borrowed words from T2
       T4: Output obtained after lemmatization of T3
------------------------------------------------------------------------------------------

File: EP10	
===========

T1: हा चित्रपट एक मूक चित्रपट होता. त्यात अनेक प्रसंग दाखवले. मुख्य म्हणजे ह्या चित्रपटात एक पात्र आहे ज्याला उद्देशुन हा पुर्ण चित्रपट बनवला आहे. हे पात्र म्हणजे एक माणुस ज्याला काही काम धंदा नसतो. दिवसभर इकडे तिकडे उनाडक्या करायच्या, शहर फिरायचे बस……. त्याच्या बद्दल हा चित्रपट आहे. हा माणूस हतका आळशी की स्वताचे कपडे धुवायला पण ह्याचा कडे वेळ नसे, नाहितर असे म्हणा की कपडे धुण्या एवढे काम पण घ्याला करवत नसे. सकाळी ऊठल्यावर बाथरूम ला जायचा कंटाळा त्यात पण लोकं ह्याला मुर्ख बनवून जात असे. त्याच्या वसतीत एक चहा वाला रोज सकाळी सगळ्याना चहा देत असे , आणि तेव्हाच त्याला ही माणसं पैसे ही देत असे, चहा दिला की माणसं लगेच पैसे देत असे. तसा तो माणूस ह्याला ही चहा द्यायला आला आणि ऊदाहरण हा चहा 10 Rs चा असो तर हा माणूस इतका कंजूस की त्या चहावाल्याला फक्त 5 Rs दिले. तसा तो चहा वाला पण हुशार त्याने ही पुर्ण ग्लास भरून त्या माणसाला चहा नाही दिला, अर्धे पैसे दिले म्हणून अर्धा चहा दिला. त्याच्या आजूबाजू ला पण लोकांना त्या चहा वाल्याने चहा दिला पण पुर्ण, तर ते त्याला बघुन हसायला लागले. त्या माणसाने चहा पियायला घेतला इतक्यात त्याला वर झाडावर बसलेला एक कावळा दिसला, आणि त्याला त्या कावळ्याची जुनी गोष्ट आठवली की कसे त्या कावळ्या ला ते माठातले पाणि हवे असते म्हणून तो दगड टाकतो पाण्यात म्हणून पाणि वर येते, तसेच त्या माणसाने ही त्या चहा मध्ये रूपये नट बोल्ट स्करू टाकले म्हणून ती चहा पुर्ण कपा मध्ये भरते. त्या माणसाला एवढा आळस की स्वताचे कपडे ही त्याने धुतले नाही, कपड्यांना वास येऊ नये म्हणून तोडीशी पावडर आणि पाणि इकडे तिकडे लावून धुवून टाकतो. त्याच्या कडे एवढे ही पैसे नसतात की तो स्वतासाठी एक टाय घेतो, कपड्या च्या गुंडाळा करून त्याची टाय वनवतो. आणि जेव्या तो बाहेर निघतो तेव्हा असे वाटते की कामाला जात आहे पण नाही, हिंडायला जात असतो. रस्त्यावर काही माणसे भांडत असतात त्यात पण काम नसताना तो तिथे रमवणूक करायला जातो. असच रसत्या वरून चालताना केळीच्या साली वरून एक माणूस पडता पडता वाचतो, म्हणजे हाच त्याला वाचवतो तर तो धन्यवाद करून पुढे जातो. आणि त्या माणसाची नजर एक दुकानावर जाते, आणि तो त्या दुकानात जातो. छान वस्तु वगैरे असतात त्या दुकानात तेच बघत असतो तो तर त्या दुकानाच्या मालकाची त्याच्यवर नजर जाते आणि तो त्या माणसावर नजर ठेवून असतो. तसेच दुकान हिडत त्याला एक माणूस दिसतो ज्याला थोडीफार जादू जमत असते तो हे बघुन दंग रहातो. तो माणूस काटीतुन कपडा काढतो आणि ह्याला असे वाटते की तो ही असे करू शकतो आणि काठी तुन कपडा काढताना त्याला कळत नाही की जोराने ती काठी तुटुन जाते ,आणि नेमका त्या दुकानाचा मालक त्याला पकडतो. दुकानात चालताना त्याला तिथे एक सुंदर मुलगी दिसते आणि त्याला ती आवडते मग तो सारखा दुकानात तिच्या पाठी फिरत असतो. ती कानातले बघत असते आणि तो त्यात पण तिला सागतो की कुठले कानातले चांगले वाईट आहेत ते.  

Processes carried out on original text before calculating its MTLD score:
===========================================================================

Process 1: Correction of spelling and grammatical mistakes

T2: हा चित्रपट एक मूक चित्रपट होता. त्यात अनेक प्रसंग दाखवले. मुख्य म्हणजे ह्या चित्रपटात एक पात्र आहे ज्याला उद्देशुन हा पूर्ण चित्रपट बनवला आहे. हे पात्र म्हणजे एक माणूस ज्याला काही कामधंदा नसतो. दिवसभर इकडे तिकडे उनाडक्या करायच्या, शहर फिरायचे बस! त्याच्याबद्दल हा चित्रपट आहे. हा माणूस इतका आळशी की स्वत:चे कपडे धुवायला पण ह्याच्याकडे वेळ नसे, नाही तर असे म्हणा की कपडे धुण्याएवढे काम पण ह्याला करवत नसे. सकाळी उठल्यावर बाथरूमला जायचा कंटाळा त्यात पण लोकं ह्याला मूर्ख बनवून जात असे. त्याच्या वस्तीत एक चहावाला रोज सकाळी सगळ्यांना चहा देत असे आणि तेव्हाच त्याला ही माणसं पैसेही देत असे, चहा दिला की माणसं लगेच पैसे देत असे. तसा तो माणूस ह्यालाही चहा द्यायला आला आणि उदाहरण हा चहा 10 Rs चा असो तर हा माणूस इतका कंजूष की त्या चहावाल्याला फक्त 5 Rs दिले. तसा तो चहावाला पण हुशार त्यानेही पूर्ण ग्लास भरून त्या माणसाला चहा नाही दिला, अर्धे पैसे दिले म्हणून अर्धा चहा दिला. त्याच्या आजूबाजूला पण लोकांना त्या चहावाल्याने चहा दिला पण पूर्ण, तर ते त्याला बघून हसायला लागले. त्या माणसाने चहा प्यायला घेतला इतक्यात त्याला वर झाडावर बसलेला एक कावळा दिसला आणि त्याला त्या कावळ्याची जुनी गोष्ट आठवली की, कसे त्या कावळ्याला ते माठातले पाणी हवे असते म्हणून तो दगड टाकतो पाण्यात म्हणून पाणी वर येते, तसेच त्या माणसानेही त्या चहामध्ये रूपये, नटबोल्ट, स्क्रू टाकले म्हणून ती चहा पूर्ण कपामध्ये भरते. त्या माणसाला एवढा आळस की स्वत:चे कपडेही त्याने धुतले नाही, कपड्यांना वास येऊ नये म्हणून थोडीशी पावडर आणि पाणी इकडे तिकडे लावून धुवून टाकतो. त्याच्याकडे एवढेही पैसे नसतात की तो स्वत:साठी एक टाय घेतो, कपड्याचा गुंडाळा करून त्याची टाय बनवतो. आणि जेव्हा तो बाहेर निघतो तेव्हा असे वाटते की कामाला जात आहे पण नाही, हिंडायला जात असतो. रस्त्यावर काही माणसे भांडत असतात त्यात पण काम नसताना तो तिथे करमणूक करायला जातो. असंच रस्त्यावरून चालताना केळ्याच्या सालीवरून एक माणूस पडता पडता वाचतो, म्हणजे हाच त्याला वाचवतो तर तो धन्यवाद करून पुढे जातो. आणि त्या माणसाची नजर एका दुकानावर जाते, आणि तो त्या दुकानात जातो. छान वस्तू वगैरे असतात त्या दुकानात तेच बघत असतो तो, तर त्या दुकानाच्या मालकाची त्याच्यावर नजर जाते आणि तो त्या माणसावर नजर ठेवून असतो. तसेच दुकान हिंडताना त्याला एक माणूस दिसतो ज्याला थोडीफार जादू जमत असते, तो हे बघून दंग राहतो. तो माणूस काठीतून कपडा काढतो आणि ह्याला असे वाटते की तोही असे करू शकतो आणि काठीतून कपडा काढताना त्याला कळत नाही की जोराने ती काठी तुटून जाते, आणि नेमका त्या दुकानाचा मालक त्याला पकडतो. दुकानात चालताना त्याला तिथे एक सुंदर मुलगी दिसते आणि त्याला ती आवडते, मग तो सारखा दुकानात तिच्या पाठी फिरत असतो. ती कानातले बघत असते आणि तो त्यात पण तिला सांगतो की कुठले कानातले चांगले, वाईट आहेत ते.  

Process 2: Removing proper nouns and borrowed words
	
T3: हा चित्रपट एक मूक चित्रपट होता. त्यात अनेक प्रसंग दाखवले. मुख्य म्हणजे ह्या चित्रपटात एक पात्र आहे ज्याला उद्देशुन हा पूर्ण चित्रपट बनवला आहे. हे पात्र म्हणजे एक माणूस ज्याला काही कामधंदा नसतो. दिवसभर इकडे तिकडे उनाडक्या करायच्या, शहर फिरायचे बस! त्याच्याबद्दल हा चित्रपट आहे. हा माणूस इतका आळशी की स्वत:चे कपडे धुवायला पण ह्याच्याकडे वेळ नसे, नाही तर असे म्हणा की कपडे धुण्याएवढे काम पण ह्याला करवत नसे. सकाळी उठल्यावर जायचा कंटाळा त्यात पण लोकं ह्याला मूर्ख बनवून जात असे. त्याच्या वस्तीत एक चहावाला रोज सकाळी सगळ्यांना चहा देत असे आणि तेव्हाच त्याला ही माणसं पैसेही देत असे, चहा दिला की माणसं लगेच पैसे देत असे. तसा तो माणूस ह्यालाही चहा द्यायला आला आणि उदाहरण हा चहा असो तर हा माणूस इतका कंजूष की त्या चहावाल्याला फक्त दिले. तसा तो चहावाला पण हुशार त्यानेही पूर्ण ग्लास भरून त्या माणसाला चहा नाही दिला, अर्धे पैसे दिले म्हणून अर्धा चहा दिला. त्याच्या आजूबाजूला पण लोकांना त्या चहावाल्याने चहा दिला पण पूर्ण, तर ते त्याला बघून हसायला लागले. त्या माणसाने चहा प्यायला घेतला इतक्यात त्याला वर झाडावर बसलेला एक कावळा दिसला आणि त्याला त्या कावळ्याची जुनी गोष्ट आठवली की, कसे त्या कावळ्याला ते माठातले पाणी हवे असते म्हणून तो दगड टाकतो पाण्यात म्हणून पाणी वर येते, तसेच त्या माणसानेही त्या चहामध्ये रूपये, नटबोल्ट, स्क्रू टाकले म्हणून ती चहा पूर्ण कपामध्ये भरते. त्या माणसाला एवढा आळस की स्वत:चे कपडेही त्याने धुतले नाही, कपड्यांना वास येऊ नये म्हणून थोडीशी पावडर आणि पाणी इकडे तिकडे लावून धुवून टाकतो. त्याच्याकडे एवढेही पैसे नसतात की तो स्वत:साठी एक टाय घेतो, कपड्याचा गुंडाळा करून त्याची टाय बनवतो. आणि जेव्हा तो बाहेर निघतो तेव्हा असे वाटते की कामाला जात आहे पण नाही, हिंडायला जात असतो. रस्त्यावर काही माणसे भांडत असतात त्यात पण काम नसताना तो तिथे करमणूक करायला जातो. असंच रस्त्यावरून चालताना केळ्याच्या सालीवरून एक माणूस पडता पडता वाचतो, म्हणजे हाच त्याला वाचवतो तर तो धन्यवाद करून पुढे जातो. आणि त्या माणसाची नजर एका दुकानावर जाते, आणि तो त्या दुकानात जातो. छान वस्तू वगैरे असतात त्या दुकानात तेच बघत असतो तो, तर त्या दुकानाच्या मालकाची त्याच्यावर नजर जाते आणि तो त्या माणसावर नजर ठेवून असतो. तसेच दुकान हिंडताना त्याला एक माणूस दिसतो ज्याला थोडीफार जादू जमत असते, तो हे बघून दंग राहतो. तो माणूस काठीतून कपडा काढतो आणि ह्याला असे वाटते की तोही असे करू शकतो आणि काठीतून कपडा काढताना त्याला कळत नाही की जोराने ती काठी तुटून जाते, आणि नेमका त्या दुकानाचा मालक त्याला पकडतो. दुकानात चालताना त्याला तिथे एक सुंदर मुलगी दिसते आणि त्याला ती आवडते, मग तो सारखा दुकानात तिच्या पाठी फिरत असतो. ती कानातले बघत असते आणि तो त्यात पण तिला सांगतो की कुठले कानातले चांगले, वाईट आहेत ते. 
	
Process 3: Lemmatization (sentence by sentence)
[Note: Read T3S1 as sentence 1 of T3 and T4S1 as sentence 1 of T4. Similarly for the rest.]

T3S1: हा चित्रपट एक मूक चित्रपट होता. 
T4S1: हा चित्रपट एक मूक चित्रपट होणे 

T3S2: त्यात अनेक प्रसंग दाखवले. 
T4S2: तो अनेक प्रसंग दाखवणे 

T3S3: मुख्य म्हणजे ह्या चित्रपटात एक पात्र आहे ज्याला उद्देशुन हा पूर्ण चित्रपट बनवला आहे. 
T4S3: मुख्य म्हणजे हा चित्रपट एक पात्र आहे जो उद्देश हा पूर्ण चित्रपट बनवणे 

T3S4: हे पात्र म्हणजे एक माणूस ज्याला काही कामधंदा नसतो. 
T4S4: हे पात्र म्हणजे एक माणूस जो काही कामधंदा नसणे

T3S5: दिवसभर इकडे तिकडे उनाडक्या करायच्या, शहर फिरायचे बस! त्याच्याबद्दल हा चित्रपट आहे.
T4S5: दिवसभर इकडेतिकडे उनाडक्या करणे शहर फिरणे बस तो बद्दल हा चित्रपट आहे 

T3S6: हा माणूस इतका आळशी की स्वत:चे कपडे धुवायला पण ह्याच्याकडे वेळ नसे, 
T4S6: हा माणूस इतका आळशी की स्वत: कपडा धुणे पण हा कडे वेळ नसणे  

T3S7: नाही तर असे म्हणा की कपडे धुण्याएवढे काम पण ह्याला करवत नसे.     
T4S7: नाही तर असा म्हणणे की कपडा धुणे एवढा काम पण हा करवणे 

T3S8: सकाळी उठल्यावर जायचा कंटाळा त्यात पण लोकं ह्याला मूर्ख बनवून जात असे. 
T4S8: सकाळी उठणे वर जाणे कंटाळा तो पण लोकं हा मूर्ख बनवूनजाणे असणे 

T3S9: त्याच्या वस्तीत एक चहावाला रोज सकाळी सगळ्यांना चहा देत असे 
T4S9: तो वस्ती एक चहावाला रोज सकाळी सगळा चहा देणे असणे 

T3S10: आणि तेव्हाच त्याला ही माणसं पैसेही देत असे, 
T4S10: आणि तेव्हा तो ही2 माणूस पैसा ही2 देणे असणे 

T3S11: चहा दिला की माणसं लगेच पैसे देत असे. 
T4S11: चहा देणे की माणूस लगेच पैसा देणे असणे 

T3S12: तसा तो माणूस ह्यालाही चहा द्यायला आला 
T4S12: तसा तो माणूस हा ही2 चहा देणे येणे 

T3S13: आणि उदाहरण हा चहा असो तर हा माणूस इतका कंजूष की त्या चहावाल्याला फक्त दिले. 
T4S13: आणि उदाहरण हा चहा असो तर हा माणूस इतका कंजूष की तो चहावाला फक्त देणे 

T3S14: तसा तो चहावाला पण हुशार त्यानेही पूर्ण ग्लास भरून त्या माणसाला चहा नाही दिला, 
T4S14: तसा तो चहावाला पण हुशार तो ही2 पूर्ण ग्लास भरणे तो माणूस चहा देणे

T3S15: अर्धे पैसे दिले म्हणून अर्धा चहा दिला. 
T4S15: अर्धा पैसा देणे म्हणून अर्धा चहा देणे 

T3S16: त्याच्या आजूबाजूला पण लोकांना त्या चहावाल्याने चहा दिला पण पूर्ण, 
T4S16: तो आजूबाजू पण लोकं तो चहावाला चहा देणे पण पूर्ण 

T3S17: तर ते त्याला बघून हसायला लागले. 
T4S17: तर ते तो बघणे हसणे लागणे

T3S18: त्या माणसाने चहा प्यायला घेतला इतक्यात त्याला वर झाडावर बसलेला एक कावळा दिसला   
T4S18: तो माणूस चहा पिणे घेणे इतका तो वर झाड वर बसणे एक कावळा दिसणे 

T3S19: आणि त्याला त्या कावळ्याची जुनी गोष्ट आठवली की, कसे त्या कावळ्याला ते माठातले पाणी हवे असते म्हणून तो दगड टाकतो पाण्यात म्हणून पाणी वर येते, 
T4S19: आणि तो तो कावळा जुना गोष्ट आठवणे की कसा तो कावळा ते माठ तला पाणी हवी असणे म्हणून तो दगड टाकणे पाणी म्हणून पाणी वर येणे

T3S20: तसेच त्या माणसानेही त्या चहामध्ये रूपये, नटबोल्ट, स्क्रू टाकले 
T4S20: तसा तो माणूस ही2 तो चहा मध्ये रूपया नटबोल्ट स्क्रू टाकणे  

T3S21: म्हणून ती चहा पूर्ण कपामध्ये भरते.
T4S21: म्हणून ती चहा पूर्ण कप मध्ये भरणे 

T3S22: त्या माणसाला एवढा आळस की स्वत:चे कपडेही त्याने धुतले नाही, 
T4S22: तो माणूस एवढा आळस की स्वत: कपडा ही2 तो धुणे 

T3S23: कपड्यांना वास येऊ नये म्हणून थोडीशी पावडर आणि पाणी इकडे तिकडे लावून धुवून टाकतो. 
T4S23: कपडा वास येणे म्हणून थोडा पावडर आणि पाणी इकडेतिकडे लावणे धुवूनटाकणे

T3S24: त्याच्याकडे एवढेही पैसे नसतात की तो स्वत:साठी एक टाय घेतो, कपड्याचा गुंडाळा करून त्याची टाय बनवतो. 
T4S24: तो कडे एवढा ही2 पैसा नसणे की तो स्वत: साठी एक टाय घेणे कपडा गुंडाळा करणे तो टाय बनवणे

T3S25: आणि जेव्हा तो बाहेर निघतो तेव्हा असे वाटते की कामाला जात आहे. 
T4S25: आणि जेव्हा तो बाहेर निघणे तेव्हा असा वाटणे1 की काम जाणे 

T3S26: पण नाही, हिंडायला जात असतो. 
T4S26: पण हिंडणे जाणे असणे 

T3S27: रस्त्यावर काही माणसे भांडत असतात त्यात पण काम नसताना तो तिथे करमणूक करायला जातो. 
T4S27: रस्ता वर काही माणूस भांडणे असणे तो पण काम नसणे तो तिथे करमणूक करायलाजाणे 

T3S28: असंच रस्त्यावरून चालताना केळ्याच्या सालीवरून एक माणूस पडता पडता वाचतो, 
T4S28: असा रस्ता वर चालणे1 केळं साल वर एक माणूस पडणे वाचणे2 

T3S29: म्हणजे हाच त्याला वाचवतो तर तो धन्यवाद करून पुढे जातो. 
T4S29: म्हणजे हा तो वाचवणे3 तर तो धन्यवाद करणे पुढे जाणे

T3S30: आणि त्या माणसाची नजर एका दुकानावर जाते, आणि तो त्या दुकानात जातो. 
T4S30: आणि तो माणूस नजर एक दुकान वर जाणे आणि तो ते दुकान जाणे 

T3S31: छान वस्तू वगैरे असतात त्या दुकानात तेच बघत असतो तो, 
T4S31: छान वस्तू वगैरे असणे ते दुकान ते बघणे असणे तो 

T3S32: तर त्या दुकानाच्या मालकाची त्याच्यावर नजर जाते आणि तो त्या माणसावर नजर ठेवून असतो. 
T4S32: तर ते दुकान मालक तो वर नजर जाणे आणि तो तो माणूस वर नजर ठेवणे असणे

T3S33: तसेच दुकान हिंडताना त्याला एक माणूस दिसतो ज्याला थोडीफार जादू जमत असते, 
T4S33: तसा दुकान हिंडणे तो एक माणूस दिसणे जो थोडाफार जादू जमणे असते

T3S34: तो हे बघून दंग राहतो. 
T4S34: तो हे बघणे दंग राहणे

T3S35: तो माणूस काठीतून कपडा काढतो आणि ह्याला असे वाटते की तोही असे करू शकतो 
T4S35: तो माणूस काठी तून कपडा काढणे आणि हा असा वाटणे1 की तो ही2 असा करूशकणे 

T3S36: आणि काठीतून कपडा काढताना त्याला कळत नाही की जोराने ती काठी तुटून जाते, 
T4S36: आणि काठी तून कपडा काढणे तो कळणे की जोर ती काठी तुटूनजाणे

T3S37: आणि नेमका त्या दुकानाचा मालक त्याला पकडतो. 
T4S37: आणि नेमका ते दुकान मालक तो पकडणे

T3S38: दुकानात चालताना त्याला तिथे एक सुंदर मुलगी दिसते आणि त्याला ती आवडते, 
T4S38: दुकान चालणे1 तो तिथे एक सुंदर मुलगी दिसणे आणि तो ती आवडणे 

T3S39: मग तो सारखा दुकानात तिच्या पाठी फिरत असतो. 
T4S39: मग तो सारखा दुकान ती पाठी फिरणे असणे

T3S40: ती कानातले बघत असते 
T4S40: ती कानातले बघणे असणे 

T3S41: आणि तो त्यात पण ती सांगतो की कुठले कानातले चांगले, वाईट आहेत ते. 
T4S41: आणि तो तो पण ती सांगणे की कुठे कानातले चांगला वाईट आहे ते

T4: हा चित्रपट एक मूक चित्रपट होणे तो अनेक प्रसंग दाखवणे मुख्य म्हणजे हा चित्रपट एक पात्र आहे जो उद्देश हा पूर्ण चित्रपट बनवणे हे पात्र म्हणजे एक माणूस जो काही कामधंदा नसणे दिवसभर इकडेतिकडे उनाडक्या करणे शहर फिरणे बस तो बद्दल हा चित्रपट आहे हा माणूस इतका आळशी की स्वत: कपडा धुणे पण हा कडे वेळ नसणे नाही तर असा म्हणणे की कपडा धुणे एवढा काम पण हा करवणे सकाळी उठणे वर जाणे कंटाळा तो पण लोकं हा मूर्ख बनवूनजाणे असणे तो वस्ती एक चहावाला रोज सकाळी सगळा चहा देणे असणे आणि तेव्हा तो ही2 माणूस पैसा ही2 देणे असणे चहा देणे की माणूस लगेच पैसा देणे असणे तसा तो माणूस हा ही2 चहा देणे येणे आणि उदाहरण हा चहा असो तर हा माणूस इतका कंजूष की तो चहावाला फक्त देणे तसा तो चहावाला पण हुशार तो ही2 पूर्ण ग्लास भरणे तो माणूस चहा देणे अर्धा पैसा देणे म्हणून अर्धा चहा देणे तो आजूबाजू पण लोकं तो चहावाला चहा देणे पण पूर्ण तर ते तो बघणे हसणे लागणे तो माणूस चहा पिणे घेणे इतका तो वर झाड वर बसणे एक कावळा दिसणे आणि तो तो कावळा जुना गोष्ट आठवणे की कसा तो कावळा ते माठ तला पाणी हवी असणे म्हणून तो दगड टाकणे पाणी म्हणून पाणी वर येणे तसा तो माणूस ही2 तो चहा मध्ये रूपया नटबोल्ट स्क्रू टाकणे म्हणून ती चहा पूर्ण कप मध्ये भरणे तो माणूस एवढा आळस की स्वत: कपडा ही2 तो धुणे कपडा वास येणे म्हणून थोडा पावडर आणि पाणी इकडेतिकडे लावणे धुवूनटाकणे तो कडे एवढा ही2 पैसा नसणे की तो स्वत: साठी एक टाय घेणे कपडा गुंडाळा करणे तो टाय बनवणे आणि जेव्हा तो बाहेर निघणे तेव्हा असा वाटणे1 की काम जाणे पण हिंडणे जाणे असणे रस्ता वर काही माणूस भांडणे असणे तो पण काम नसणे तो तिथे करमणूक करायलाजाणे असा रस्ता वर चालणे1 केळं साल वर एक माणूस पडणे वाचणे2 म्हणजे हा तो वाचवणे3 तर तो धन्यवाद करणे पुढे जाणे आणि तो माणूस नजर एक दुकान वर जाणे आणि तो ते दुकान जाणे छान वस्तू वगैरे असणे ते दुकान ते बघणे असणे तो तर ते दुकान मालक तो वर नजर जाणे आणि तो तो माणूस वर नजर ठेवणे असणे तसा दुकान हिंडणे तो एक माणूस दिसणे जो थोडाफार जादू जमणे असते तो हे बघणे दंग राहणे तो माणूस काठी तून कपडा काढणे आणि हा असा वाटणे1 की तो ही2 असा करूशकणे आणि काठी तून कपडा काढणे तो कळणे की जोर ती काठी तुटूनजाणे आणि नेमका ते दुकान मालक तो पकडणे दुकान चालणे1 तो तिथे एक सुंदर मुलगी दिसणे आणि तो ती आवडणे मग तो सारखा दुकान ती पाठी फिरणे असणे ती कानातले बघणे असणे आणि तो तो पण ती सांगणे की कुठे कानातले चांगला वाईट आहे ते  


