Personal details of the participant: 
Age - 13 years
Standard - 9th
Sex - Male
Mother tongue - Marathi
Medium of instruction in school - Marathi
---------------------------------------------
NOTE
Process 1: Correction of spelling and grammatical mistakes
Process 2: Removing proper nouns and borrowed words
Process 3: Lemmatization
        S: Sentence
       T1: Original text
       T2: Output obtained after correction of spelling and grammatical mistakes in T1
       T3: Output obtained after removal of proper nouns and borrowed words from T2
       T4: Output obtained after lemmatization of T3
-----------------------------------------------------------------------------------------

File: MCC01	
============

T1:एक चारलीचॅपलीन असतो तो आपल काम करून त्या दुकानातुन बाहेर येतो व तो रस्त्याने चालत असतो तेव्हा त्याच्या समोरून एक ट्रक जात असतो. त्या ट्रकामध्ये एक झेंडा ठेवलेला असतो. तो झेंडा पडतो. ते तो पाहतो व तो उचलतो आणि झेंडा उचलल्यावर तो त्यांनी त्या ट्रकवाल्याला देण्याचा प्रयत्न करतो. तेव्हा त्याच्या मागुन एक मोर्चा येत असतो. त्याने तो झेंडा फिरवल्याने त्याच्या मागुन तो मोर्चा जातो. व त्याने तो फिरवल्याने तो एक घोड्याची शर्यतीतला एक घोडा तिकडे जातो. व तिथे धक्काबुक्की होते. आणि तिथे त्या मोर्चांना पकडायला पोलीस येतात. तेव्हा तो चारलीचॅपलीन गटराच्या आत जातो व पोलीस पुढे जातात. थोड्या वेळाने तो पोलीसांना दिसतो व पोलीस त्याला जेलमध्ये घेऊन जातात नंतर एक पोरगी जहाजावरील केळीचा घडामधील एक-एक केळी कापून ती त्या मुलांना देते. नंतर तीथे एक जहाजावरील मालक तिला बघतो व पकडायला जातो. तेव्हा तो रसीमध्ये अडकुन पडतो व ती घरी जाते. घरामध्ये जाऊन ती आपल्या बहि‍णींना केळी देते. थोड्यावेळ्यानंतर तिचे बाबा येतात म्हणून ती सर्व आत लपतात. तिचे बाबा नाराज होऊन घरी येतात व पाणी पियुन एका खुर्चीवर नाराज होऊन बसतात. व तिथे येऊन बाबांना आश्चर्यचकीत व करते. ती बाबांनाही केळी देते. थोड्यावेळानंतर तिथे त्या चारलीचॅपलीनला जेलमध्ये टाकतात. त्या जेलमध्ये एक माणुस काहीतरी शिवत असतो व तो शिवुन झाल्यावर तो धागा तोडतो व त्या चारलीचॅपलीनवर थुकतो. व ते चारलीचॅपलीन काढतो. नंतर तो माणुस त्या सुईमध्येधागा टाकण्याचा पर्यत्न करत असतो पण चारलीचॅपलीनला कि हा आपल्यालाच ती सुई टोचतोय. नंतर तो तिकडे ते काम करत असतो. पण तो त्याला हलवतो. म्हणून तो माणूस त्याला वर जा बोलतो. व तो चारलीचॅपलीन वर जाताना तो बेड त्याच्या डोक्यात पाडतो. तो बेड डोक्यात पाडल्यामुळे तो त्या चारलीचॅपलीनला मारतो. थोड्यावेळाने जेवणाची वेळ होते. तेव्हा तो चारलीचॅपलीन तो पाव घेण्यासाठी जातो. पण तो त्याला देत नाही व बोलतो कि हा माझा पाव आहे. तेव्हा त्याच्या बाजूला एक खतरनाक चोर बसलेला असतो. तो चोर त्या मिठामध्ये भांग मिश्रण करतो. मग त्याला ते पोलीस तिथुन घेऊन जातात. नंतर तो चारलीचॅपलीन ती भांग आपल्या जेवणामध्ये मिश्रण करतो व पावाला लावुन खातो. ते खाल्यामुळे त्याला नशा चढते तो विचित्र वागायला लागतो. मग जेवणाची वेळ संपते. ते लाईनीत जाताना तो गोल फिरत जरा पुढे जायचा गोल फिरायचा. मग तो जेलमधल्या दरवाज्यापर्यंत पोहोचतो मग तो गोल फिरतो व बाहेर पडण्याच्या दिशेने जातो. नंतर तो बघतो अरे मी कुठे आलोय मग तो तिथे मागे जातो. नंतर तिथुन दोन चोर पोलीसांना पकडून त्यांच्या खिशामधील एक जण चावी घेऊन आपल्या चोराला बाहेर काढतो व पोलीसांना आत टाकतो. तेव्हा तिथुन चारलीचॅपलीन येतो व त्या एक चोराला ढकलतो व त्या चोराला जेलमधुन पोलीस पकडतात व तो चोर चारलीचॅपलीनवर गोळ्या झाडतो. पण त्याला लागत नाही. मग तो त्या चोरांनाही मारतो व पोलासांना जेलमधुन बाहेर काढतो. व पोलीस त्याचे आनंदाने कौतुक करतात.

Processes carried out on original text before calculating its MTLD score:
===========================================================================

Process 1: Correction of spelling and grammatical mistakes

T2:एक चार्ली चॅप्लिन असतो तो आपलं काम करून त्या दुकानातून बाहेर येतो व तो रस्त्याने चालत असतो तेव्हा त्याच्या समोरून एक ट्रक जात असतो. त्या ट्रकमध्ये एक झेंडा ठेवलेला असतो. तो झेंडा पडतो. ते तो पाहतो व तो उचलतो आणि झेंडा उचलल्यावर तो त्यांनी त्या ट्रकवाल्याला देण्याचा प्रयत्न करतो. तेव्हा त्याच्या मागून एक मोर्चा येत असतो. त्याने तो झेंडा फिरवल्याने त्याच्या मागून तो मोर्चा जातो. व त्याने तो फिरवल्याने तो एक घोड्याच्या शर्यतीतला एक घोडा तिकडे जातो. व तिथे धक्काबुक्की होते. आणि तिथे त्या मोर्चाला पकडायला पोलीस येतात. तेव्हा तो चार्ली चॅप्लिन गटाराच्या आत जातो व पोलीस पुढे जातात. थोड्या वेळाने तो पोलिसांना दिसतो व पोलीस त्याला जेलमध्ये घेऊन जातात नंतर एक पोरगी जहाजावरील केळ्याच्या घडामधील एक-एक केळं कापून ती त्या मुलांना देते. नंतर तिथे एका जहाजावरील मालक तिला बघतो व पकडायला जातो. तेव्हा तो रश्शीमध्ये अडकून पडतो व ती घरी जाते. घरामध्ये जाऊन ती आपल्या बहि‍णींना केळी देते. थोड्या वेळानंतर तिचे बाबा येतात म्हणून ते सर्व आत लपतात. तिचे बाबा नाराज होऊन घरी येतात व पाणी पिऊन एका खुर्चीवर नाराज होऊन बसतात. व तिथे येऊन बाबांना आश्चर्यचकित व करते. ती बाबांनाही केळी देते. थोड्या वेळानंतर तिथे त्या चार्ली चॅप्लिनला जेलमध्ये टाकतात. त्या जेलमध्ये एक माणूस काहीतरी शिवत असतो व तो शिवून झाल्यावर तो धागा तोडतो व त्या चार्ली चॅप्लिनवर थुंकतो. व ते चार्ली चॅप्लिन काढतो. नंतर तो माणूस त्या सुईमध्ये धागा टाकण्याचा प्रयत्न करत असतो पण चार्ली चॅप्लिनला की हा आपल्यालाच ती सुई टोचतोय. नंतर तो तिकडे ते काम करत असतो. पण तो त्याला हलवतो. म्हणून तो माणूस त्याला वर जा बोलतो. व तो चार्ली चॅप्लिन वर जाताना तो बेड त्याच्या डोक्यात पाडतो. तो बेड डोक्यात पाडल्यामुळे तो त्या चार्ली चॅप्लिनला मारतो.थोड्या वेळाने जेवणाची वेळ होते. तेव्हा तो चार्ली चॅप्लिन तो पाव घेण्यासाठी जातो. पण तो त्याला देत नाही व बोलतो की हा माझा पाव आहे. तेव्हा त्याच्या बाजूला एक खतरनाक चोर बसलेला असतो. तो चोर त्या मिठामध्ये भांग मिश्रण करतो. मग त्याला ते पोलीस तिथून घेऊन जातात. नंतर तो चार्ली चॅप्लिन ती भांग आपल्या जेवणामध्ये मिश्रण करतो व पावाला लावून खातो. ते खाल्यामुळे त्याला नशा चढते तो विचित्र वागायला लागतो. मग जेवणाची वेळ संपते. ते लाईनीत जाताना तो गोल फिरत जरा पुढे जायचा गोल फिरायचा. मग तो जेलमधल्या दरवाज्यापर्यंत पोहोचतो मग तो गोल फिरतो व बाहेर पडण्याच्या दिशेने जातो. नंतर तो बघतो अरे मी कुठे आलोय मग तो तिथे मागे जातो. नंतर तिथून दोन चोर पोलिसांना पकडून त्यांच्या खिशामधील एक जण चावी घेऊन आतल्या चोराला बाहेर काढतो व पोलिसांना आत टाकतो. तेव्हा तिथून चार्ली चॅप्लिन येतो व त्या एका चोराला ढकलतो व त्या चोराला जेलमधून पोलीस पकडतात व तो चोर चार्ली चॅप्लिनवर गोळ्या झाडतो. पण त्याला लागत नाही. मग तो त्या चोरांनाही मारतो व पोलिसांना जेलमधून बाहेर काढतो. व पोलीस त्याचे आनंदाने कौतुक करतात.

Process 2: Removing proper nouns and borrowed words
	
T3: एक असतो तो आपलं काम करून त्या दुकानातून बाहेर येतो व तो रस्त्याने चालत असतो तेव्हा त्याच्या समोरून एक ट्रक जात असतो. त्या ट्रकमध्ये एक झेंडा ठेवलेला असतो. तो झेंडा पडतो. ते तो पाहतो व तो उचलतो आणि झेंडा उचलल्यावर तो त्यांनी त्या ट्रकवाल्याला देण्याचा प्रयत्न करतो. तेव्हा त्याच्या मागून एक मोर्चा येत असतो. त्याने तो झेंडा फिरवल्याने त्याच्या मागून तो मोर्चा जातो. व त्याने तो फिरवल्याने तो एक घोड्याच्या शर्यतीतला एक घोडा तिकडे जातो. व तिथे धक्काबुक्की होते. आणि तिथे त्या मोर्चाला पकडायला पोलीस येतात. तेव्हा तो गटाराच्या आत जातो व पोलीस पुढे जातात. थोड्या वेळाने तो पोलिसांना दिसतो व पोलीस त्याला मध्ये घेऊन जातात नंतर एक पोरगी जहाजावरील केळ्याच्या घडामधील एक एक केळं कापून ती त्या मुलांना देते. नंतर तिथे एका जहाजावरील मालक तिला बघतो व पकडायला जातो. तेव्हा तो रश्शीमध्ये अडकून पडतो व ती घरी जाते. घरामध्ये जाऊन ती आपल्या बहिणींना केळी देते. थोड्या वेळानंतर तिचे बाबा येतात म्हणून ते सर्व आत लपतात. तिचे बाबा नाराज होऊन घरी येतात व पाणी पिऊन एका खुर्चीवर नाराज होऊन बसतात. व तिथे येऊन बाबांना आश्चर्यचकित व करते. ती बाबांनाही केळी देते. थोड्या वेळानंतर तिथे त्या मध्ये टाकतात. त्या मध्ये एक माणूस काहीतरी शिवत असतो व तो शिवून झाल्यावर तो धागा तोडतो व त्या वर थुंकतो. व ते काढतो. नंतर तो माणूस त्या सुईमध्ये धागा टाकण्याचा प्रयत्न करत असतो पण की हा आपल्यालाच ती सुई टोचतोय. नंतर तो तिकडे ते काम करत असतो. पण तो त्याला हलवतो. म्हणून तो माणूस त्याला वर जा बोलतो. व तो वर जाताना तो त्याच्या डोक्यात पाडतो. तो डोक्यात पाडल्यामुळे तो त्या मारतो. थोड्या वेळाने जेवणाची वेळ होते. तेव्हा तो तो पाव घेण्यासाठी जातो. पण तो त्याला देत नाही व बोलतो की हा माझा पाव आहे. तेव्हा त्याच्या बाजूला एक चोर बसलेला असतो. तो चोर त्या मिठामध्ये भांग मिश्रण करतो. मग त्याला ते पोलीस तिथून घेऊन जातात. नंतर तो ती भांग आपल्या जेवणामध्ये मिश्रण करतो व पावाला लावून खातो. ते खाल्यामुळे त्याला नशा चढते तो विचित्र वागायला लागतो. मग जेवणाची वेळ संपते. ते जाताना तो गोल फिरत जरा पुढे जायचा गोल फिरायचा. मग तो मधल्या दरवाज्यापर्यंत पोहोचतो मग तो गोल फिरतो व बाहेर पडण्याच्या दिशेने जातो. नंतर तो बघतो अरे मी कुठे आलोय मग तो तिथे मागे जातो. नंतर तिथून दोन चोर पोलिसांना पकडून त्यांच्या खिशामधील एक जण चावी घेऊन आतल्या चोराला बाहेर काढतो व पोलिसांना आत टाकतो. तेव्हा तिथून येतो व त्या एका चोराला ढकलतो व त्या चोराला मधून पोलीस पकडतात व तो चोर वर गोळ्या झाडतो. पण त्याला लागत नाही. मग तो त्या चोरांनाही मारतो व पोलिसांना मधून बाहेर काढतो. व पोलीस त्याचे आनंदाने कौतुक करतात. 
	
Process 3: Lemmatization (sentence by sentence)
[Note: Read T3S1 as sentence 1 of T3 and T4S1 as sentence 1 of T4. Similarly for the rest.]

T3S1: एक असतो तो आपलं काम करून त्या दुकानातून बाहेर येतो
T4S1: एक असणे तो आपण काम करणे ते दुकान तून बाहेर येणे 

T3S2: व तो रस्त्याने चालत असतो तेव्हा त्याच्या समोरून एक ट्रक जात असतो. 
T4S2: व तो रस्ता चालणे1 असणे तेव्हा तो समोर एक ट्रक जाणे असणे 

T3S3: त्या ट्रकमध्ये एक झेंडा ठेवलेला असतो.
T4S3: तो ट्रक मध्ये एक झेंडा ठेवणे असणे 

T3S4: तो झेंडा पडतो. 
T4S4: तो झेंडा पडणे

T3S5: ते तो पाहतो व तो उचलतो आणि झेंडा उचलल्यावर तो त्यांनी त्या ट्रकवाल्याला देण्याचा प्रयत्न करतो.
T4S5: ते तो पाहणे व तो उचलणे आणि झेंडा उचलणे वर तो ते तो ट्रकवाला देणे प्रयत्न करणे

T3S6: तेव्हा त्याच्या मागून एक मोर्चा येत असतो. 
T4S6: तेव्हा तो मागे एक मोर्चा येणे असणे 

T3S7: त्याने तो झेंडा फिरवल्याने त्याच्या मागून तो मोर्चा जातो.
T4S7: तो तो झेंडा फिरवणे तो मागे तो मोर्चा जाणे

T3S8: व त्याने तो फिरवल्याने तो एक घोड्याच्या शर्यतीतला एक घोडा तिकडे जातो.
T4S8: व तो तो फिरवणे तो एक घोडा शर्यत तला एक घोडा तिकडे जाणे 

T3S9: व तिथे धक्काबुक्की होते.
T4S9: व तिथे धक्काबुक्की होणे

T3S10: आणि तिथे त्या मोर्चाला पकडायला पोलीस येतात. 
T4S10: आणि तिथे तो मोर्चा पकडणे पोलीस येणे

T3S11: तेव्हा तो गटाराच्या आत जातो व पोलीस पुढे जातात.
T4S11: तेव्हा तो गटार आत जाणे व पोलीस पुढे जाणे

T3S12: थोड्या वेळाने तो पोलिसांना दिसतो व पोलीस त्याला मध्ये घेऊन जातात
T4S12: थोडा वेळ तो पोलीस दिसणे व पोलीस तो मध्ये घेणे जाणे 

T3S13: नंतर एक पोरगी जहाजावरील केळ्याच्या घडामधील एक एक केळं कापून ती त्या मुलांना देते.
T4S13: नंतर एक पोरगी जहाज वर केळं घड मध्ये एक केळं कापणे ती ती मूल देणे

T3S14: नंतर तिथे एका जहाजावरील मालक तिला बघतो व पकडायला जातो. 
T4S14: नंतर तिथे एक जहाज वर मालक ती बघणे व पकडणे जाणे

T3S15: तेव्हा तो रश्शीमध्ये अडकून पडतो व ती घरी जाते.
T4S15: तेव्हा तो रश्शीमध्ये अडकणे पडणे व ती घर जाणे

T3S16:    घरामध्ये जाऊन ती आपल्या बहि‍णींना केळी देते. 
T4S16: घर मध्ये जाणे ती आपण बहीणकेळं देणे 

T3S17: थोड्या वेळानंतर तिचे बाबा येतात म्हणून ते सर्व आत लपतात.
T4S17: थोडा वेळ नंतर ती बाबा येणे म्हणून ते सर्व आत लपणे

T3S18: तिचे बाबा नाराज होऊन घरी येतात व पाणी पिऊन एका खुर्चीवर नाराज होऊन बसतात. 
T4S18: ती बाबा नाराज होणे घर येणे व पाणी पिणे एक खुर्ची वर नाराज होणे बसणे

T3S19: व तिथे येऊन बाबांना आश्चर्यचकित व करते.
T4S19: व तिथे येणे बाबा आश्चर्यचकित व करणे
 
T3S20: ती बाबांनाही केळी देते.
T4S20: ती बाबा ही2 केळं देणे 

T3S21: थोड्या वेळानंतर तिथे त्या मध्ये टाकतात. 
T4S21: थोडा वेळ नंतर तिथे तो मध्ये टाकणे

T3S22: त्या मध्ये एक माणूस काहीतरी शिवत असतो 
T4S22: ते मध्ये एक माणूस काही तरी शिवणे2 असणे 

T3S23: व तो शिवून झाल्यावर तो धागा तोडतो व त्या वर थुंकतो. व ते काढतो.
T4S23: व तो शिवणे2 होणे वर तो धागा तोडणे व तो वर थुंकणे व ते काढणे

T3S24: नंतर तो माणूस त्या सुईमध्ये धागा टाकण्याचा प्रयत्न करत असतो 
T4S24: नंतर तो माणूस ती सुई मध्ये धागा टाकणे प्रयत्न करणे असणे 

T3S25: पण की हा आपल्यालाच ती सुई टोचतोय. 
T4S25: पण की हा आपण ती सुई टोचणे

T3S26: नंतर तो तिकडे ते काम करत असतो. 
T4S26: नंतर तो तिकडे ते काम करणे असणे

T3S27: पण तो त्याला हलवतो. 
T4S27: पण तो तो हलवणे

T3S28: म्हणून तो माणूस त्याला वर जा बोलतो. 
T4S28: म्हणून तो माणूस तो वर जाणे बोलणे

T3S29: व तो वर जाताना तो त्याच्या डोक्यात पाडतो. 
T4S29: व तो वर जाणे तो तो डोकं पाडणे

T3S30: तो डोक्यात पाडल्यामुळे तो त्या मारतो. 
T4S30: तो डोकं पाडणे मुळे तो तो मारणे

T3S31: थोड्या वेळाने जेवणाची वेळ होते. 
T4S31: थोडा वेळ जेवण वेळ होणे

T3S32: तेव्हा तो तो पाव घेण्यासाठी जातो. 
T4S32: तेव्हा तो तो पाव घेणे साठी जाणे

T3S33: पण तो त्याला देत नाही व बोलतो की हा माझा पाव आहे. 
T4S33: पण तो तोदेणे व बोलणे की हा मी पाव आहे

T3S34: तेव्हा त्याच्या बाजूला एक चोर बसलेला असतो.
T4S34: तेव्हा तो बाजू एक चोर बसणे असणे

T3S35: तो चोर त्या मिठामध्ये भांग मिश्रण करतो. 
T4S35: तो चोर ते मीठ मध्ये भांग मिश्रण करणे 

T3S36: मग त्याला ते पोलीस तिथून घेऊन जातात. 
T4S36: मग तो ते पोलीस तिथे घेणे जाणे

T3S37: नंतर तो ती भांग आपल्या जेवणामध्ये मिश्रण करतो व पावाला लावून खातो. 
T4S37: नंतर तो ती भांग आपण जेवण मध्ये मिश्रण करणे व पाव लावणे खाणे

T3S38: ते खाल्यामुळे त्याला नशा चढते तो विचित्र वागायला लागतो. 
T4S38: ते खाणे मुळे तो नशा चढणे तो विचित्र वागणे लागणे

T3S39: मग जेवणाची वेळ संपते.
T4S39: मग जेवण वेळ संपणे

T3S40: ते जाताना तो गोल फिरत जरा पुढे जायचा गोल फिरायचा. 
T4S40: ते जाणे तो गोल फिरणे जरा पुढे जाणे गोल फिरणे

T3S41: मग तो मधल्या दरवाज्यापर्यंत पोहोचतो मग तो गोल फिरतो व बाहेर पडण्याच्या दिशेने जातो. 
T4S41: मग तो मध्ये दरवाजा पर्यंत पोहोचणे मग तो गोल फिरणे व बाहेर पडणे दिशा जाणे

T3S42: नंतर तो बघतो अरे मी कुठे आलोय मग तो तिथे मागे जातो.
T4S42: नंतर तो बघणे अरे मी कुठे येणे मग तो तिथे मागे जाणे

T3S43: नंतर तिथून दोन चोर पोलिसांना पकडून त्यांच्या खिशामधील एक जण चावी घेऊन आतल्या चोराला बाहेर काढतो व पोलिसांना आत टाकतो.
T4S43: नंतर तिथे दोन चोर पोलीस पकडणे ते खिसा मध्ये एक जण चावी घेणे आत चोर बाहेर काढणे व पोलीस आत टाकणे

T3S44: तेव्हा तिथून येतो व त्या एका चोराला ढकलतो 
T4S44: तेव्हा तिथे येणे व तो एक चोर ढकलणे 

T3S45: व त्या चोराला मधून पोलीस पकडतात व तो चोर वर गोळ्या झाडतो. 
T4S45: व तो चोर मध्ये पोलीस पकडणे व तो चोर वर गोळी झाडणे

T3S46: पण त्याला लागत नाही.
T4S46: पण तो लागणे

T3S47: मग तो त्या चोरांनाही मारतो व पोलिसांना मधून बाहेर काढतो.
T4S47: मग तो तो चोर ही2 मारणे व पोलीस मध्ये बाहेर काढणे

T3S48: व पोलीस त्याचे आनंदाने कौतुक करतात. 
T4S48: व पोलीस तो आनंद कौतुक करणे

T4: एक असणे तो आपण काम करणे ते दुकान तून बाहेर येणे व तो रस्ता चालणे1 असणे तेव्हा तो समोर एक ट्रक जाणे असणे तो ट्रक मध्ये एक झेंडा ठेवणे असणे तो झेंडा पडणे ते तो पाहणे व तो उचलणे आणि झेंडा उचलणे वर तो ते तो ट्रकवाला देणे प्रयत्न करणे तेव्हा तो मागे एक मोर्चा येणे असणे तो तो झेंडा फिरवणे तो मागे तो मोर्चा जाणे व तो तो फिरवणे तो एक घोडा शर्यत तला एक घोडा तिकडे जाणे व तिथे धक्काबुक्की होणे आणि तिथे तो मोर्चा पकडणे पोलीस येणे तेव्हा तो गटार आत जाणे व पोलीस पुढे जाणे थोडा वेळ तो पोलीस दिसणे व पोलीस तो मध्ये घेणे जाणे नंतर एक पोरगी जहाज वर केळं घड मध्ये एक केळं कापणे ती ती मूल देणे नंतर तिथे एक जहाज वर मालक ती बघणे व पकडणे जाणे तेव्हा तो रश्शीमध्ये अडकणे पडणे व ती घर जाणे घर मध्ये जाणे ती आपण बहीणकेळं देणे थोडा वेळ नंतर ती बाबा येणे म्हणून ते सर्व आत लपणे ती बाबा नाराज होणे घर येणे व पाणी पिणे एक खुर्ची वर नाराज होणे बसणे व तिथे येणे बाबा आश्चर्यचकित व करणे ती बाबा ही2 केळं देणे थोडा वेळ नंतर तिथे तो मध्ये टाकणे ते मध्ये एक माणूस काही तरी शिवणे2 असणे व तो शिवणे2 होणे वर तो धागा तोडणे व तो वर थुंकणे व ते काढणे नंतर तो माणूस ती सुई मध्ये धागा टाकणे प्रयत्न करणे असणे पण की हा आपण ती सुई टोचणे नंतर तो तिकडे ते काम करणे असणे. पण तो तो हलवणे म्हणून तो माणूस तो वर जाणे बोलणे व तो वर जाणे तो तो डोकं पाडणे तो डोकं पाडणे मुळे तो तो मारणे थोडा वेळ जेवण वेळ होणे तेव्हा तो तो पाव घेणे साठी जाणे पण तो तोदेणे व बोलणे की हा मी पाव आहे तेव्हा तो बाजू एक चोर बसणे असणे तो चोर ते मीठ मध्ये भांग मिश्रण करणे मग तो ते पोलीस तिथे घेणे जाणे नंतर तो ती भांग आपण जेवण मध्ये मिश्रण करणे व पाव लावणे खाणे ते खाणे मुळे तो नशा चढणे तो विचित्र वागणे लागणे मग जेवण वेळ संपणे ते जाणे तो गोल फिरणे जरा पुढे जाणे गोल फिरणे मग तो मध्ये दरवाजा पर्यंत पोहोचणे मग तो गोल फिरणे व बाहेर पडणे दिशा जाणे नंतर तो बघणे अरे मी कुठे येणे मग तो तिथे मागे जाणे नंतर तिथे दोन चोर पोलीस पकडणे ते खिसा मध्ये एक जण चावी घेणे आत चोर बाहेर काढणे व पोलीस आत टाकणे तेव्हा तिथे येणे व तो एक चोर ढकलणे व तो चोर मध्ये पोलीस पकडणे व तो चोर वर गोळी झाडणे पण तो लागणे मग तो तो चोर ही2 मारणे व पोलीस मध्ये बाहेर काढणे व पोलीस तो आनंद कौतुक करणे




