Personal details of the participant: 
Age - 14 years
Standard - 9th
Sex - Male
Mother tongue - Marathi
Medium of instruction in school - Marathi
-----------------------------------------------
NOTE
Process 1: Correction of spelling and grammatical mistakes
Process 2: Removing proper nouns and borrowed words
Process 3: Lemmatization
        S: Sentence
       T1: Original text
       T2: Output obtained after correction of spelling and grammatical mistakes in T1
       T3: Output obtained after removal of proper nouns and borrowed words from T2
       T4: Output obtained after lemmatization of T3
-------------------------------------------------------------------------------------------

File: ECC04	
============

T1: तो एका दुकानातुन बाहेर त्यांच्या समोरूण एक टेम्पो जात असतो त्या टेम्पो म्हधले एक झेंडा पडतो तोत्या टेम्पो वाल्याला बोलवत असतो की तेवढ्यात त्याच्या पाटून लोक येतात तो पूढे जात असतो त्याच्या पाठून लोक त्याच्या सोबत जात असतात. तेवढ्यात पोलिस येते. त्याला पकटते आणि एक मुलगी समुद्रावर केळी चोरत असते एक माणूस बहतो ती पळून जाते. चारलीन जेलमध्ये असतो. जेवणाची बेल होते. तो टेबलवर खाली वाकतो टेवड्यात जेवण वाटतात. त्याला वाटते की जेवण वरूण आल त्याच्या बाजूला एक चरस गांजाचा स्मगलर असतो तो एका मिठाच्या बरणीत ठेवतो ती बरणी तो घेतो मिठ त्याच्या जेवनात टाकतो नतर तो गुलाट्या खात असतो नतर तो पळत असलेल्या चोराना पकडतो. मग त्याला सोडतात.

Processes carried out on original text before calculating its MTLD score:
===========================================================================

Process 1: Correction of spelling and grammatical mistakes

T2: तो एका दुकानातून बाहेर त्यांच्या समोरून एक टेम्पो जात असतो त्या टेम्पोमधला एक झेंडा पडतो तो त्या टेम्पोवाल्याला बोलवत असतो की तेवढ्यात त्याच्या पाठून लोक येतात तो पुढे जात असतो त्याच्या पाठून लोक त्याच्यासोबत जात असतात. तेवढ्यात पोलीस येतात. त्याला पकडतात आणि एक मुलगी समुद्रावर केळी चोरत असते एक माणूस बघतो. ती पळून जाते. चार्ली जेलमध्ये असतो. जेवणाची बेल होते. तो टेबलवर खाली वाकतो तेवढ्यात जेवण वाटतात. त्याला वाटते की जेवण वरून आलं. त्याच्या बाजूला एक चरस गांजाचा स्मगलर असतो तो एका मिठाच्या बरणीत ठेवतो ती बरणी तो घेतो मीठ त्याच्या जेवणात टाकतो नंतर तो कोलांट्या खात असतो नंतर तो पळत असलेल्या चोरांना पकडतो. मग त्याला सोडतात.

Process 2: Removing proper nouns and borrowed words
	
T3: तो एका दुकानातून बाहेर त्यांच्या समोरून एक टेम्पो जात असतो त्या टेम्पोमधला एक झेंडा पडतो तो त्या टेम्पोवाल्याला बोलवत असतो की तेवढ्यात त्याच्या पाठून लोक येतात तो पुढे जात असतो त्याच्या पाठून लोक त्याच्यासोबत जात असतात. तेवढ्यात पोलीस येतात. त्याला पकडतात आणि एक मुलगी समुद्रावर केळी चोरत असते एक माणूस बघतो. ती पळून जाते. मध्ये असतो. जेवणाची बेल होते. तो टेबलवर खाली वाकतो तेवढ्यात जेवण वाटतात. त्याला वाटते की जेवण वरून आलं. त्याच्या बाजूला एक चरस गांजाचा असतो तो एका मिठाच्या बरणीत ठेवतो ती बरणी तो घेतो मीठ त्याच्या जेवणात टाकतो नंतर तो कोलांट्या खात असतो नंतर तो पळत असलेल्या चोरांना पकडतो. मग त्याला सोडतात.
	
Process 3: Lemmatization (sentence by sentence)
[Note: Read T3S1 as sentence 1 of T3 and T4S1 as sentence 1 of T4. Similarly for the rest.]

T3S1: तो एका दुकानातून बाहेर त्यांच्या समोरून एक टेम्पो जात असतो. 
T4S1: तो एक दुकान तून बाहेर ते समोर एक टेम्पो जाणे असणे 

T3S2: त्या टेम्पोमधला एक झेंडा पडतो. 
T4S2: तो टेम्पो मध्ये एक झेंडा पडणे 

T3S3: तो त्या टेम्पोवाल्याला बोलवत असतो की तेवढ्यात त्याच्या पाठून लोक येतात. 
T4S3: तो तो टेम्पोवाला बोलावणे असणे की तेवढा तो पाठी लोकं येणे 

T3S4: तो पुढे जात असतो त्याच्या पाठून लोक त्याच्यासोबत जात असतात. 
T4S4: तो पुढे जाणे असणे तो पाठी लोकं तो सोबत जाणे असणे 

T3S5: तेवढ्यात पोलीस येतात. 
T4S5: तेवढा पोलीस येणे 

T3S6: त्याला पकडतात  
T4S6: तो पकडणे 

T3S7: आणि एक मुलगी समुद्रावर केळी चोरत असते. 
T4S7: आणि एक मुलगी समुद्र वर केळं चोरणे असणे 

T3S8: एक माणूस बघतो. 
T4S8: एक माणूस बघणे 

T3S9: ती पळून जाते. 
T4S9: ती पळणे जाणे

T3S10: मध्ये असतो.  
T4S10: मध्ये असणे

T3S11: जेवणाची बेल होते.
T4S11: जेवण बेल होणे

T3S12: तो टेबलवर खाली वाकतो तेवढ्यात जेवण वाटतात. 
T4S12: तो टेबल वर खाली वाकणे तेवढा जेवण वाटणे2

T3S13: त्याला वाटते की जेवण वरून आलं. 
T4S13: तो वाटणे1 की जेवण वर येणे 

T3S14: त्याच्या बाजूला एक चरस गांजाचा असतो. 
T4S14: तो बाजू एक चरस गांजा असणे 

T3S15: तो एका मिठाच्या बरणीत ठेवतो. 
T4S15: तो एक मीठ बरणी ठेवणे

T3S16: ती बरणी तो घेतो.   
T4S16: ती बरणी तो घेणे 

T3S17: मीठ त्याच्या जेवणात टाकतो.
T4S17: मीठ तो जेवण टाकणे 

T3S18: नंतर तो कोलांट्या खात असतो.
T4S18: नंतर तो कोलांटी खाणे असणे 

T3S19: नंतर तो पळत असलेल्या चोरांना पकडतो.
T4S19: नंतर तो पळणे असणे चोर पकडणे

T3S20: मग त्याला सोडतात. 
T4S20: मग तो सोडणे

T4: तो एक दुकान तून बाहेर ते समोर एक टेम्पो जाणे असणे तो टेम्पो मध्ये एक झेंडा पडणे तो तो टेम्पोवाला बोलावणे असणे की तेवढा तो पाठी लोकं येणे तो पुढे जाणे असणे तो पाठी लोकं तो सोबत जाणे असणे तेवढा पोलीस येणे तो पकडणे आणि एक मुलगी समुद्र वर केळं चोरणे असणे एक माणूस बघणे ती पळणे जाणे मध्ये असणे जेवण बेल होणे तो टेबल वर खाली वाकणे तेवढा जेवण वाटणे2 तो वाटणे1 की जेवण वर येणे तो बाजू एक चरस गांजा असणे तो एक मीठ बरणी ठेवणे ती बरणी तो घेणे मीठ तो जेवण टाकणे नंतर तो कोलांटी खाणे असणे नंतर तो पळणे असणे चोर पकडणे मग तो सोडणे


