Personal details of the participant: 
Age - 18 years
Standard - First year of graduation
Sex - Male
Mother tongue - Marathi
Medium of instruction in school - Marathi
----------------------------------------------
NOTE
Process 1: Correction of spelling and grammatical mistakes
Process 2: Removing proper nouns and borrowed words
Process 3: Lemmatization
        S: Sentence
       T1: Original text
       T2: Output obtained after correction of spelling and grammatical mistakes in T1
       T3: Output obtained after removal of proper nouns and borrowed words from T2
       T4: Output obtained after lemmatization of T3
----------------------------------------------------------------------------------------

File: MP09	
===========

T1: ह्या चित्रपटाच वर्णन एका गरीब माणसांच्या परिस्थितीशी अवलंबुन आहे. तो त्याच काम विनोदी करण्याचे आहे व लोकांना मनोरंजन देखील करतो. तो एका चाळीत राहतो. त्या चाळीत त्रास सकाळी तो म्हणजे संडास खुप मोठी लाईन असते. त्यात कधी नंबर येईल माहीत नाही नुसती धावपळ. नंतर चायवाला येतो तो संगळ्यांच्या घरी दररोज सकाळी चाय द्यायला येतो. त्यात हा माणूस चाय २ रूपयची घेतो आणि त्यात कॉईन, बटण, खिळे टाकतो मग पितो एवढा कंजुस माणूस आहे. तो इतका की तो शेटलापण साबणाचा फेस लावतो व कपडे धुवत नाही. तो सकाळी आरशात नाकातली केस कापवतो व आपली बॉडी पाहतो. मग कपडे करून बाहेर जातो. फिरत जात असतो त्या तेवढ्यात त्याला भिकारी दिसतो. त्याच्या कटोर्‍यात १ रूपया असतो. त्याला मदत करायची असते. तो पाकिटातले पैसे काढतो आणि उढवतो तो भिकारी निघाला श्रीमंत त्याच्याकडे त्याच्याहून जास्त पैसे असतात. तो तिथून निघुन जातो. त्याच्यानंतर जात असताना तो एका केळीच्या सालीवरून घसरतो. नंतर दुकान जात असताना तो साल टाकतो. आणी दुसर्‍या माणसाची मदत करतो. मग त्या दुकानात सगळे साहित्य बघत असतो त्यात त्याला एक जादुगार माणुस दिसतो. ते तो बघत असतो. नंतर एक सुंदर मुलगी दिसते ती आरश्यात बघत असते तो तिला बघत असतो. आणि आरश्यात छान अशी अकशन करतो. व ती मुलगी निघुन जाते. तो जादुगार माणुस भेटतो तो माणुस काठीची रूमाल बनवतो. तो त्याचे बघुन करायला जातो आणि काठीच तोडतो. मग त्याचे मागे दुकानातले कर्मचारी माठीमागे लागतात.

Processes carried out on original text before calculating its MTLD score:
============================================================================

Process 1: Correction of spelling and grammatical mistakes

T2: ह्या चित्रपटाच वर्णन एका गरीब माणसांच्या परिस्थितीशी अवलंबुन आहे. तो त्याच काम विनोदी करण्याचे आहे व लोकांना मनोरंजन देखील करतो. तो एका चाळीत राहतो. त्या चाळीत त्रास सकाळी तो म्हणजे संडास खुप मोठी लाईन असते. त्यात कधी नंबर येईल माहीत नाही नुसती धावपळ. नंतर चहावाला येतो तो सगळ्यांच्या घरी दररोज सकाळी चहा द्यायला येतो. त्यात हा माणूस चहा दोन रूपयाची घेतो आणि त्यात कॉईन, बटण, खिळे टाकतो मग पितो. एवढा कंजूष माणूस आहे, तो इतका की तो शर्टालापण साबणाचा फेस लावतो व कपडे धुवत नाही. तो सकाळी आरशात नाकातले केस कापतो व आपली बॉडी पाहतो. मग कपडे करून बाहेर जातो. फिरत जात असतो त्या तेवढ्यात त्याला भिकारी दिसतो. त्याच्या कटोर्‍यात एक रूपया असतो. त्याला मदत करायची असते. तो पाकिटातले पैसे काढतो आणि उडवतो, तो भिकारी निघाला श्रीमंत. त्याच्याकडे त्याच्याहून जास्त पैसे असतात. तो तिथून निघून जातो. त्याच्यानंतर जात असताना तो एका केळीच्या सालीवरून घसरतो. नंतर दुकानात जात असताना तो साल टाकतो आणि दुसर्‍या माणसाची मदत करतो. मग त्या दुकानात सगळे साहित्य बघत असतो, त्यात त्याला एक जादूगार माणूस दिसतो. ते तो बघत असतो. नंतर एक सुंदर मुलगी दिसते, ती आरशात बघत असते, तो तिला बघत असतो आणि आरशात छान अशी अॅक्शन करतो व ती मुलगी निघून जाते. तो जादूगार माणूस भेटतो, तो माणूस काठीचा रूमाल बनवतो. तो त्याचे बघून करायला जातो आणि काठीच तोडतो. मग त्याच्या मागे दुकानातले कर्मचारी पाठीमागे लागतात. 

Process 2: Removing proper nouns and borrowed words
	
T3: ह्या चित्रपटाच वर्णन एका गरीब माणसांच्या परिस्थितीशी अवलंबुन आहे. तो त्याच काम विनोदी करण्याचे आहे व लोकांना मनोरंजन देखील करतो. तो एका चाळीत राहतो. त्या चाळीत त्रास सकाळी तो म्हणजे संडास खुप मोठी असते. त्यात कधी नंबर येईल माहीत नाही नुसती धावपळ. नंतर चहावाला येतो तो सगळ्यांच्या घरी दररोज सकाळी चहा द्यायला येतो. त्यात हा माणूस चहा दोन रूपयाची घेतो आणि त्यात, बटण, खिळे टाकतो मग पितो. एवढा कंजूष माणूस आहे, तो इतका की तो शर्टालापण साबणाचा फेस लावतो व कपडे धुवत नाही. तो सकाळी आरशात नाकातले केस कापतो व आपली बॉडी पाहतो. मग कपडे करून बाहेर जातो. फिरत जात असतो त्या तेवढ्यात त्याला भिकारी दिसतो. त्याच्या एक रूपया असतो. त्याला मदत करायची असते. तो पाकिटातले पैसे काढतो आणि उडवतो, तो भिकारी निघाला श्रीमंत. त्याच्याकडे त्याच्याहून जास्त पैसे असतात. तो तिथून निघून जातो. त्याच्यानंतर जात असताना तो एका केळीच्या सालीवरून घसरतो. नंतर दुकानात जात असताना तो साल टाकतो आणि दुसर्‍या माणसाची मदत करतो. मग त्या दुकानात सगळे साहित्य बघत असतो, त्यात त्याला एक जादूगार माणूस दिसतो. ते तो बघत असतो. नंतर एक सुंदर मुलगी दिसते, ती आरशात बघत असते, तो तिला बघत असतो आणि आरशात छान अशी करतो व ती मुलगी निघून जाते. तो जादूगार माणूस भेटतो, तो माणूस काठीचा रूमाल बनवतो. तो त्याचे बघून करायला जातो आणि काठीच तोडतो. मग त्याच्या मागे दुकानातले कर्मचारी पाठीमागे लागतात.
	
Process 3: Lemmatization (sentence by sentence)
[Note: Read T3S1 as sentence 1 of T3 and T4S1 as sentence 1 of T4. Similarly for the rest.]

T3S1: ह्या चित्रपटाच वर्णन एका गरीब माणसांच्या परिस्थितीशी अवलंबुन आहे. 
T4S1: हा चित्रपट वर्णन एक गरीब माणूस परिस्थिती अवलंब आहे

T3S2: तो त्याच काम विनोदी करण्याचे आहे व लोकांना मनोरंजन देखील करतो. 
T4S2: तो तो काम विनोदी करणे व लोकं मनोरंजन देखील करणे

T3S3: तो एका चाळीत राहतो. 
T4S3: तो एक चाळ राहणे 

T3S4: त्या चाळीत त्रास सकाळी तो म्हणजे संडास खुप मोठी असते. 
T4S4: ती चाळ त्रास सकाळी तो म्हणजे संडास खुप मोठा असणे

T3S5: त्यात कधी नंबर येईल माहीत नाही नुसती धावपळ. 
T4S5: तो कधी नंबर येणे माहीत नाही नुसता धावपळ

T3S6: नंतर चहावाला येतो  
T4S6: नंतर चहावाला येणे 

T3S7: तो सगळ्यांच्या घरी दररोज सकाळी चहा द्यायला येतो. 
T4S7: तो सगळा घर दररोज सकाळी चहा देणे येणे

T3S8: त्यात हा माणूस चहा दोन रूपयाची घेतो आणि त्यात, बटण, खिळे टाकतो मग पितो.  
T4S8: तो हा माणूस चहा दोन रूपया घेणे आणि तो बटण खिळा टाकणे मग पिणे

T3S9: एवढा कंजूष माणूस आहे, तो इतका की तो शर्टालापण साबणाचा फेस लावतो व कपडे धुवत नाही. 
T4S9: एवढा कंजूष माणूस आहे तो इतका की तो शर्ट पण साबण फेस लावणे व कपडा धुणे

T3S10: तो सकाळी आरशात नाकातले केस कापतो व आपली बॉडी पाहतो.  
T4S10: तो सकाळी आरसा नाक तला केस कापणे व आपण बॉडी पाहणे

T3S11: मग कपडे करून बाहेर जातो. 
T4S11: मग कपडा करणे बाहेर जाणे 

T3S12: फिरत जात असतो त्या तेवढ्यात त्याला भिकारी दिसतो. 
T4S12: फिरणे जाणे असणे तो तेवढा तो भिकारी दिसणे

T3S13: त्याच्या एक रूपया असतो. 
T4S13: तो एक रूपया असणे

T3S14: त्याला मदत करायची असते.  
T4S14: तो मदत करणे असणे

T3S15: तो पाकिटातले पैसे काढतो आणि उडवतो, 
T4S15: तो पाकीट तला पैसा काढणे आणि उडवणे 

T3S16: तो भिकारी निघाला श्रीमंत. 
T4S16: तो भिकारी निघणे श्रीमंत 

T3S17: त्याच्याकडे त्याच्याहून जास्त पैसे असतात.   
T4S17: तो कडे तो जास्त पैसा असणे

T3S18: तो तिथून निघून जातो.  
T4S18: तो तिथे निघणे जाणे

T3S19: त्याच्यानंतर जात असताना तो एका केळीच्या सालीवरून घसरतो. 
T4S19: तो नंतर जाणे असणे तो एक केळं साल वर घसरणे 

T3S20:    नंतर दुकानात जात असताना तो साल टाकतो आणि दुसर्‍या माणसाची मदत करतो. 
T4S20: नंतर दुकान जाणे असणे तो साल टाकणे आणि दुसरा माणूस मदत करणे

T3S21: मग त्या दुकानात सगळे साहित्य बघत असतो,  
T4S21: मग ते दुकान सगळा साहित्य बघणे असणे  

T3S22: त्यात त्याला एक जादूगार माणूस दिसतो. 
T4S22: तो तो एक जादूगार माणूस दिसणे

T3S23: ते तो बघत असतो. 
T4S23: ते तो बघणे असणे

T3S24: नंतर एक सुंदर मुलगी दिसते, 
T4S24: नंतर एक सुंदर मुलगी दिसणे

T3S25: ती आरशात बघत असते,  
T4S25: ती आरसा बघणे असणे

T3S26: तो तिला बघत असतो आणि आरशात छान अशी करतो 
T4S26: तो ती बघणे असणे आणि आरसा छान असा करणे 

T3S27: व ती मुलगी निघून जाते. 
T4S27: व ती मुलगी निघणे जाणे

T3S28: तो जादूगार माणूस भेटतो, 
T4S28: तो जादूगार माणूस भेटणे

T3S29: तो माणूस काठीचा रूमाल बनवतो. 
T4S29: तो माणूस काठी रूमाल बनवणे 

T3S30: तो त्याचे बघून करायला जातो आणि काठीच तोडतो. 
T4S30: तो तो बघणे करणे जाणे आणि काठी तोडणे

T3S31: मग त्याच्या मागे दुकानातले कर्मचारी पाठीमागे लागतात. 
T4S31: मग तो मागे दुकान तला कर्मचारी पाठीमागे लागणे 

T4: हा चित्रपट वर्णन एक गरीब माणूस परिस्थिती अवलंब आहे तो तो काम विनोदी करणे व लोकं मनोरंजन देखील करणे तो एक चाळ राहणे ती चाळ त्रास सकाळी तो म्हणजे संडास खुप मोठा असणे तो कधी नंबर येणे माहीत नाही नुसता धावपळ नंतर चहावाला येणे तो सगळा घर दररोज सकाळी चहा देणे येणे तो हा माणूस चहा दोन रूपया घेणे आणि तो बटण खिळा टाकणे मग पिणे एवढा कंजूष माणूस आहे तो इतका की तो शर्ट पण साबण फेस लावणे व कपडा धुणे तो सकाळी आरसा नाक तला केस कापणे व आपण बॉडी पाहणे मग कपडा करणे बाहेर जाणे फिरणे जाणे असणे तो तेवढा तो भिकारी दिसणे तो एक रूपया असणे तो मदत करणे असणे तो पाकीट तला पैसा काढणे आणि उडवणे तो भिकारी निघणे श्रीमंत तो कडे तो जास्त पैसा असणे तो तिथे निघणे जाणे तो नंतर जाणे असणे तो एक केळं साल वर घसरणे नंतर दुकान जाणे असणे तो साल टाकणे आणि दुसरा माणूस मदत करणे मग ते दुकान सगळा साहित्य बघणे असणे तो तो एक जादूगार माणूस दिसणे ते तो बघणे असणे नंतर एक सुंदर मुलगी दिसणे ती आरसा बघणे असणे तो ती बघणे असणे आणि आरसा छान असा करणे व ती मुलगी निघणे जाणे तो जादूगार माणूस भेटणे तो माणूस काठी रूमाल बनवणे तो तो बघणे करणे जाणे आणि काठी तोडणे मग तो मागे दुकान तला कर्मचारी पाठीमागे लागणे 


