Personal details of the participant: 
Age - 15 years
Standard - 11th
Sex - Female
Mother tongue - Marathi
Medium of instruction in school - Marathi
-----------------------------------------------
NOTE
Process 1: Correction of spelling and grammatical mistakes
Process 2: Removing proper nouns and borrowed words
Process 3: Lemmatization
        S: Sentence
       T1: Original text
       T2: Output obtained after correction of spelling and grammatical mistakes in T1
       T3: Output obtained after removal of proper nouns and borrowed words from T2
       T4: Output obtained after lemmatization of T3
------------------------------------------------------------------------------------------

File: MP10	
===========

T1: हि कहाणी एका चाळीत राहणार्‍या व्यक्तीची आहे. तेथे सार्वजनिक शौचालय आहेत. तो माणूस जेव्हा सार्वजनिक शौचालयात जातो तेथे आधीच लोक लाईन मध्ये उभी होती. तो नंबर मध्ये उभा राहतो. त्याचा नंबर येऊन जातो तरी त्याला शौचालयात जाता येत नाही कारण चाळीतील लोक त्याच्या मागून लाईन मध्ये येऊन पण त्याला जाऊ देत नव्हते त्याच्या मागून खूप माणसे आली आणि शौचालयात जाऊन निघून गेली पण हा माणूस तिथेच बाहेर उभा होता त्याला कोणी जाऊ देत नव्हते तो सारखा जायचा प्रयत्न करत असे आणि कोणीतरी जात असे. अखेर तो शौचालयाला जातो. आणि अंघोळ करून तो त्याच्या खोलीत जातो कपडे घालण्यासाठी तो त्याचा शर्ट हातात घेतो आणि त्याचा वास घेतो त्याला त्या शर्टला घामाचा वास येतो म्हणून तो ते शर्ट हाताच्या बाजूला साबणाने धुतो व सुकत ठेवतो. आणि तो खिडकित उभा राहतो. त्या चाळीत एक चहावाला होता. तो सर्व रूम मध्ये जाऊन चहा विकत असे. तसेच तो चहावाला मुलगा या माणसाच्या खिडकीवर आला आणि चहा देऊ लागला. ह्या माणसाने आधी बरोबर पैसे दिले म्हणुन तो चहावाला चहा देत होता मग या माणसाने पैसे कमी दिले म्हणून त्या चहावाल्याने पण चहा अर्धीच दिली. तसेच तो खिडकीत उभा होता त्याने खिडकितून खाली पाहिले त्याला एक स्त्री दिसली तसेच त्याने खिडकीतून दुसरीकडे पाहिले. त्याला एक व्यक्तीने आपला भरलेला चहाचा कप दाखवला तसेच त्याने खिडकीतून आकाशाकडे पाहिले. तर त्याला तारेवर बसलेला कावळा दिसला. कावळ्याला पाहून त्याला कावळ्याची गोष्ट आठवली. मग त्या माणसाने चहाच्या कपात घरातली काही छोट्या वस्तू टाकल्या उदा. बटण, नाणी वगैरे त्यामुळे चहा पूर्ण कप भरला. मग त्याने ते आनंदाने पिला. मग तो स्वत:ची तयारी करून बाहेर निघाला तो रस्त्याच्या एका कडेला थांवला, त्याला रस्त्याच्या दुसर्‍या कडेला एक भिकारी बसलेला दिसला त्याने त्याला बघून आपल्या पाकीटातून रूपया काढून वरती उडवून परत पकडला ते बघून त्या भिकार्‍याने पण तेच केले भिकार्याला कळले होते की या माणसाकडे काहीच पैसे नाहीत. म्हणून त्याने लपवलेले पैसे काडून तो त्या माणसाला चिडवू लागला की माझ्याकडे बघ किती पैसे आहेत. मग तो माणूस तिथून निघून गेला व रस्त्यावरून चालू लागला. तिथे त्याला एक ऐतिहासिक वस्तूचे दुकान दिसले. तो त्या दुकानात जाणार त्याच्या आधी दुकानाच्या दारात केळीचे साल पडले होते. त्या सालावरून एका व्यक्तीस या माणसाने पडता पडता वाचवले व त्याच्या हातातील वस्तूचे पण काही नुकसान झाले नाही. तो व्यक्ती जेव्हा या माणसाचे आभार मानत होता हे त्या दुकानाच्या मालकाने पाहिले त्याला हा माणूस कोणीतरी मोठा व्यक्ती आहे असे वाटले. हा माणूस दुकानात जातो. त्याने आत पाय ठेवल्यावर दरवाज्यावर चौकीदार त्याला सॅलूट करतो. आणि मग मालक पण त्या माणसाच्या मागे येतो. जिथे जिथे हा माणूस जात होता तिथे तिथे तो मालक जात होता. नंतर तो माणूस पूर्ण दुकान फिरू लागला त्याला वेगवेगळ्या प्रकारची माणसे भेटली. त्यात तर एक जादुगारच होता. त्याला त्याच दुकानात ती चाळीतील स्त्री दिसली. ती वेगवेगळे दागिने घेऊ पाहत होती तिला कानात घालायचा दागिना घ्यायचा होता तिला कळत नव्हते की कोणते घेऊ तर ती त्या माणसाला इशार्‍यांमध्ये विचारत होती. तो पुढे जातो त्याला तो जादूगार पुन्हा दिसतो. तो व्यक्ती लाकडी काठी चे रूपांतर एका कपड्यात करतो. हे बघून हा माणूस पण तेच करत असतो. त्याला हे जमत नाही आणि त्याच्या हातून ती काठी तुटते तेवढ्यात त्या दुकानचे मालक त्याच्या मागे येतात. मग हा माणूस दुकान मालकाला बघून पळायला लागतो व दुकान मालक पण त्याच्या मागे लागतो.  

Processes carried out on original text before calculating its MTLD score:
============================================================================

Process 1: Correction of spelling and grammatical mistakes

T2:   ही कहाणी एका चाळीत राहणार्‍या व्यक्तीची आहे. तेथे सार्वजनिक शौचालय आहेत. तो माणूस जेव्हा सार्वजनिक शौचालयात जातो तेथे आधीच लोक लाईनमध्ये उभी होती. तो नंबरमध्ये उभा राहतो. त्याचा नंबर येऊन जातो तरी त्याला शौचालयात जाता येत नाही कारण चाळीतील लोक त्याच्या मागून लाईनमध्ये येऊन पण त्याला जाऊ देत नव्हते, त्याच्या मागून खूप माणसे आली आणि शौचालयात जाऊन निघून गेली पण हा माणूस तिथेच बाहेर उभा होता त्याला कोणी जाऊ देत नव्हते तो सारखा जायचा प्रयत्न करत असे आणि कोणीतरी जात असे. अखेर तो शौचालयाला जातो. आणि आंघोळ करून तो त्याच्या खोलीत जातो कपडे घालण्यासाठी, तो त्याचा शर्ट हातात घेतो आणि त्याचा वास घेतो, त्याला त्या शर्टला घामाचा वास येतो म्हणून तो ते शर्ट हाताच्या बाजूला साबणाने धुतो व सुकत ठेवतो. आणि तो खिडकीत उभा राहतो. त्या चाळीत एक चहावाला होता. तो सर्व रूममध्ये जाऊन चहा विकत असे. तसेच तो चहावाला मुलगा या माणसाच्या खिडकीवर आला आणि चहा देऊ लागला. ह्या माणसाने आधी बरोबर पैसे दिले म्हणून तो चहावाला चहा देत होता, मग या माणसाने पैसे कमी दिले म्हणून त्या चहावाल्याने पण चहा अर्धीच दिली. तसेच तो खिडकीत उभा होता त्याने खिडकीतून खाली पाहिले, त्याला एक स्त्री दिसली तसेच त्याने खिडकीतून दुसरीकडे पाहिले. त्याला एक व्यक्तीने आपला भरलेला चहाचा कप दाखवला तसेच त्याने खिडकीतून आकाशाकडे पाहिले. तर त्याला तारेवर बसलेला कावळा दिसला. कावळ्याला पाहून त्याला कावळ्याची गोष्ट आठवली. मग त्या माणसाने चहाच्या कपात घरातल्या काही छोट्या वस्तू टाकल्या उदा. बटण, नाणी वगैरे त्यामुळे चहा पूर्ण कप भरला. मग त्याने ते आनंदाने पिला. मग तो स्वतःची तयारी करून बाहेर निघाला तो रस्त्याच्या एका कडेला थांबला, त्याला रस्त्याच्या दुसर्‍या कडेला एक भिकारी बसलेला दिसला. त्याने त्याला बघून आपल्या पाकिटातून रूपया काढून वरती उडवून परत पकडला, ते बघून त्या भिकार्‍याने पण तेच केले. भिकाऱ्याला कळले होते की या माणसाकडे काहीच पैसे नाहीत. म्हणून त्याने लपवलेले पैसे काढून तो त्या माणसाला चिडवू लागला की माझ्याकडे बघ किती पैसे आहेत. मग तो माणूस तिथून निघून गेला व रस्त्यावरून चालू लागला. तिथे त्याला एक ऐतिहासिक वस्तूचे दुकान दिसले. तो त्या दुकानात जाणार त्याच्या आधी दुकानाच्या दारात केळीचे साल पडले होते. त्या सालीवरून एका व्यक्तीस या माणसाने पडता पडता वाचवले व त्याच्या हातातील वस्तूचे पण काही नुकसान झाले नाही. तो व्यक्ती जेव्हा या माणसाचे आभार मानत होता हे त्या दुकानाच्या मालकाने पाहिले, त्याला हा माणूस कोणीतरी मोठा व्यक्ती आहे असे वाटले. हा माणूस दुकानात जातो. त्याने आत पाय ठेवल्यावर दरवाज्यावर चौकीदार त्याला सॅलूट करतो. आणि मग मालक पण त्या माणसाच्या मागे येतो. जिथे जिथे हा माणूस जात होता तिथे तिथे तो मालक जात होता. नंतर तो माणूस पूर्ण दुकान फिरू लागला, त्याला वेगवेगळ्या प्रकारची माणसे भेटली. त्यात तर एक जादूगारच होता. त्याला त्याच दुकानात ती चाळीतील स्त्री दिसली. ती वेगवेगळे दागिने घेऊ पाहत होती तिला कानात घालायचा दागिना घ्यायचा होता, तिला कळत नव्हते की कोणते घेऊ तर ती त्या माणसाला इशार्‍यांमध्ये विचारत होती. तो पुढे जातो त्याला तो जादूगार पुन्हा दिसतो. तो व्यक्ती लाकडी काठीचे रूपांतर एका कपड्यात करतो. हे बघून हा माणूस पण तेच करत असतो. त्याला हे जमत नाही आणि त्याच्या हातून ती काठी तुटते. तेवढ्यात त्या दुकानाचे मालक त्याच्या मागे येतात. मग हा माणूस दुकान मालकाला बघून पळायला लागतो व दुकान मालक पण त्याच्या मागे लागतो. 

Process 2: Removing proper nouns and borrowed words
	
T3:   ही कहाणी एका चाळीत राहणाऱ्या व्यक्तीची आहे. तेथे सार्वजनिक शौचालय आहेत. तो माणूस जेव्हा सार्वजनिक शौचालयात जातो तेथे आधीच लोक मध्ये उभी होती. तो नंबरमध्ये उभा राहतो. त्याचा नंबर येऊन जातो तरी त्याला शौचालयात जाता येत नाही कारण चाळीतील लोक त्याच्या मागून मध्ये येऊन पण त्याला जाऊ देत नव्हते, त्याच्या मागून खूप माणसे आली आणि शौचालयात जाऊन निघून गेली पण हा माणूस तिथेच बाहेर उभा होता त्याला कोणी जाऊ देत नव्हते तो सारखा जायचा प्रयत्न करत असे आणि कोणीतरी जात असे. अखेर तो शौचालयाला जातो. आणि आंघोळ करून तो त्याच्या खोलीत जातो कपडे घालण्यासाठी, तो त्याचा शर्ट हातात घेतो आणि त्याचा वास घेतो, त्याला त्या शर्टला घामाचा वास येतो म्हणून तो ते शर्ट हाताच्या बाजूला साबणाने धुतो व सुकत ठेवतो. आणि तो खिडकीत उभा राहतो. त्या चाळीत एक चहावाला होता. तो सर्व मध्ये जाऊन चहा विकत असे. तसेच तो चहावाला मुलगा या माणसाच्या खिडकीवर आला आणि चहा देऊ लागला. ह्या माणसाने आधी बरोबर पैसे दिले म्हणून तो चहावाला चहा देत होता, मग या माणसाने पैसे कमी दिले म्हणून त्या चहावाल्याने पण चहा अर्धीच दिली. तसेच तो खिडकीत उभा होता त्याने खिडकीतून खाली पाहिले, त्याला एक स्त्री दिसली तसेच त्याने खिडकीतून दुसरीकडे पाहिले. त्याला एक व्यक्तीने आपला भरलेला चहाचा कप दाखवला तसेच त्याने खिडकीतून आकाशाकडे पाहिले. तर त्याला तारेवर बसलेला कावळा दिसला. कावळ्याला पाहून त्याला कावळ्याची गोष्ट आठवली. मग त्या माणसाने चहाच्या कपात घरातल्या काही छोट्या वस्तू टाकल्या उदा. बटण, नाणी वगैरे त्यामुळे चहा पूर्ण कप भरला. मग त्याने ते आनंदाने पिला. मग तो स्वतःची तयारी करून बाहेर निघाला तो रस्त्याच्या एका कडेला थांबला, त्याला रस्त्याच्या दुसऱ्या कडेला एक भिकारी बसलेला दिसला. त्याने त्याला बघून आपल्या पाकिटातून रूपया काढून वरती उडवून परत पकडला, ते बघून त्या भिकाऱ्याने पण तेच केले. भिकाऱ्याला कळले होते की या माणसाकडे काहीच पैसे नाहीत. म्हणून त्याने लपवलेले पैसे काढून तो त्या माणसाला चिडवू लागला की माझ्याकडे बघ किती पैसे आहेत. मग तो माणूस तिथून निघून गेला व रस्त्यावरून चालू लागला. तिथे त्याला एक ऐतिहासिक वस्तूचे दुकान दिसले. तो त्या दुकानात जाणार त्याच्या आधी दुकानाच्या दारात केळीचे साल पडले होते. त्या सालीवरून एका व्यक्तीस या माणसाने पडता पडता वाचवले व त्याच्या हातातील वस्तूचे पण काही नुकसान झाले नाही. तो व्यक्ती जेव्हा या माणसाचे आभार मानत होता हे त्या दुकानाच्या मालकाने पाहिले, त्याला हा माणूस कोणीतरी मोठा व्यक्ती आहे असे वाटले. हा माणूस दुकानात जातो. त्याने आत पाय ठेवल्यावर दरवाज्यावर चौकीदार त्याला करतो. आणि मग मालक पण त्या माणसाच्या मागे येतो. जिथे जिथे हा माणूस जात होता तिथे तिथे तो मालक जात होता. नंतर तो माणूस पूर्ण दुकान फिरू लागला, त्याला वेगवेगळ्या प्रकारची माणसे भेटली. त्यात तर एक जादूगारच होता. त्याला त्याच दुकानात ती चाळीतील स्त्री दिसली. ती वेगवेगळे दागिने घेऊ पाहत होती तिला कानात घालायचा दागिना घ्यायचा होता, तिला कळत नव्हते की कोणते घेऊ तर ती त्या माणसाला इशाऱ्यांमध्ये विचारत होती. तो पुढे जातो त्याला तो जादूगार पुन्हा दिसतो. तो व्यक्ती लाकडी काठीचे रूपांतर एका कपड्यात करतो. हे बघून हा माणूस पण तेच करत असतो. त्याला हे जमत नाही आणि त्याच्या हातून ती काठी तुटते. तेवढ्यात त्या दुकानाचे मालक त्याच्या मागे येतात. मग हा माणूस दुकान मालकाला बघून पळायला लागतो व दुकान मालक पण त्याच्या मागे लागतो. 

Process 3: Lemmatization (sentence by sentence)
[Note: Read T3S1 as sentence 1 of T3 and T4S1 as sentence 1 of T4. Similarly for the rest.]

T3S1:    ही कहाणी एका चाळीत राहणार्‍या व्यक्तीची आहे. 
T4S1: ही1 कहाणी एक चाळ राहणे व्यक्ती आहे

T3S2: तेथे सार्वजनिक शौचालय आहेत. 
T4S2: तिथे सार्वजनिक शौचालय आहे

T3S3: तो माणूस जेव्हा सार्वजनिक शौचालयात जातो तेथे आधीच लोक मध्ये उभी होती.  
T4S3: तो माणूस जेव्हा सार्वजनिक शौचालय जाणे तिथे आधी लोकं मध्ये उभा होणे

T3S4: तो नंबरमध्ये उभा राहतो. 
T4S4: तो नंबर मध्ये उभा राहणे

T3S5: त्याचा नंबर येऊन जातो 
T4S5: तो नंबर येणे जाणे 

T3S6: तरी त्याला शौचालयात जाता येत नाही 
T4S6: तरी तो शौचालय जाणे येणे 

T3S7: कारण चाळीतील लोक त्याच्या मागून मध्ये येऊन पण त्याला जाऊ देत नव्हते, 
T4S7: कारण चाळ तील लोकं तो मागे मध्ये येणे पण तो जाणे देणे

T3S8: त्याच्या मागून खूप माणसे आली आणि शौचालयात जाऊन निघून गेली 
T4S8: तो मागे खूप माणूस येणे आणि शौचालय जाणे निघणे जाणे 

T3S9: पण हा माणूस तिथेच बाहेर उभा होता त्याला कोणी जाऊ देत नव्हते 
T4S9: पण हा माणूस तिथे बाहेर उभा होणे तो कोणी जाणे देणे 

T3S10: तो सारखा जायचा प्रयत्न करत असे आणि कोणीतरी जात असे. 
T4S10: तो सारखा जाणे प्रयत्न करणे असणे आणि कोणी तरी जाणे असणे

T3S11: अखेर तो शौचालयाला जातो. 
T4S11: अखेर तो शौचालय जाणे

T3S12: आणि आंघोळ करून तो त्याच्या खोलीत जातो कपडे घालण्यासाठी, 
T4S12: आणि आंघोळ करणे तो तो खोली जाणे कपडा घालणे साठी

T3S13: तो त्याचा शर्ट हातात घेतो आणि त्याचा वास घेतो, 
T4S13: तो तो शर्ट हात घेणे आणि तो वास घेणे

T3S14: त्याला त्या शर्टला घामाचा वास येतो म्हणून तो ते शर्ट हाताच्या बाजूला साबणाने धुतो व सुकत ठेवतो.    
T4S14: तो तो शर्ट घाम वास येणे म्हणून तो ते शर्ट हात बाजू साबण धुणे व सुकणे ठेवणे

T3S15: आणि तो खिडकीत उभा राहतो.   
T4S15: आणि तो खिडकी उभा राहणे

T3S16: त्या चाळीत एक चहावाला होता. 
T4S16: ती चाळ एक चहावाला होणे

T3S17: तो सर्व मध्ये जाऊन चहा विकत असे.   
T4S17: तो सर्व मध्ये जाणे चहा विकणे असणे

T3S18: तसेच तो चहावाला मुलगा या माणसाच्या खिडकीवर आला आणि चहा देऊ लागला. 
T4S18: तसा तो चहावाला मुलगा हा माणूस खिडकी वर येणे आणि चहा देणे लागणे 

T3S19: ह्या माणसाने आधी बरोबर पैसे दिले म्हणून तो चहावाला चहा देत होता, 
T4S19: हा माणूस आधी बरोबर पैसा देणे म्हणून तो चहावाला चहा देणे 

T3S20: मग या माणसाने पैसे कमी दिले म्हणून त्या चहावाल्याने पण चहा अर्धीच दिली. 
T4S20: मग हा माणूस पैसा कमी देणे म्हणून तो चहावाला पण चहा अर्धा देणे 

T3S21: तसेच तो खिडकीत उभा होता त्याने खिडकीतून खाली पाहिले, 
T4S21: तसा तो खिडकी उभा होणे तो खिडकी तून खाली पाहणे 

T3S22: त्याला एक स्त्री दिसली तसेच त्याने खिडकीतून दुसरीकडे पाहिले. 
T4S22: तो एक स्त्री दिसणे तसा तो खिडकी तून दुसरा कडे पाहणे

T3S23: त्याला एक व्यक्तीने आपला भरलेला चहाचा कप दाखवला 
T4S23: तो एक व्यक्ती आपण भरणे चहा कप दाखवणे 

T3S24: तसेच त्याने खिडकीतून आकाशाकडे पाहिले. 
T4S24: तसा तो खिडकी तून आकाश कडे पाहणे

T3S25: तर त्याला तारेवर बसलेला कावळा दिसला.   
T4S25: तर तो तार वर बसणे कावळा दिसणे

T3S26: कावळ्याला पाहून त्याला कावळ्याची गोष्ट आठवली. 
T4S26: कावळा पाहणे तो कावळा गोष्ट आठवणे

T3S27: मग त्या माणसाने चहाच्या कपात घरातल्या काही छोट्या वस्तू टाकल्या उदा. बटण, नाणी वगैरे त्यामुळे चहा पूर्ण कप भरला
T4S27: मग तो माणूस चहा कप घर तला काही छोटा वस्तू टाकणे उदा बटण नाणं वगैरे तो मुळे चहा पूर्ण कप भरणे

T3S28: मग त्याने ते आनंदाने पिला. 
T4S28: मग तो ते आनंद पिणे 

T3S29: मग तो स्वतःची तयारी करून बाहेर निघाला 
T4S29: मग तो स्वतः तयारी करणे बाहेर निघणे 

T3S30:    तो रस्त्याच्या एका कडेला थांबला, त्याला रस्त्याच्या दुसर्‍या कडेला एक भिकारी बसलेला दिसला. 
T4S30: तो रस्ता एक कडे थांबणे तो रस्ता दुसरा कडे एक भिकारी बसणे दिसणे

T3S31: त्याने त्याला बघून आपल्या पाकिटातून रूपया काढून वरती उडवून परत पकडला, 
T4S31: तो तो बघणे आपण पाकीट तून रूपया काढणे वर उडवणे परत पकडणे

T3S32:    ते बघून त्या भिकार्‍याने पण तेच केले. 
T4S32: ते बघणे तो भिकारी पण ते करणे 

T3S33: भिकाऱ्याला कळले होते की या माणसाकडे काहीच पैसे नाहीत.   
T4S33: भिकारी कळणे की हा माणूस कडे काही पैसा नाही

T3S34: म्हणून त्याने लपवलेले पैसे काढून तो त्या माणसाला चिडवू लागला की माझ्याकडे बघ किती पैसे आहेत. 
T4S34: म्हणून तो लपवणे पैसा काढणे तो तो माणूस चिडवणे लागणे की मी कडे बघणे किती पैसा आहे

T3S35: मग तो माणूस तिथून निघून गेला व रस्त्यावरून चालू लागला. 
T4S35: मग तो माणूस तिथे निघणे जाणे व रस्ता वर चालणे1 लागणे 

T3S36: तिथे त्याला एक ऐतिहासिक वस्तूचे दुकान दिसले. 
T4S36: तिथे तो एक ऐतिहासिक वस्तू दुकान दिसणे 

T3S37: तो त्या दुकानात जाणार त्याच्या आधी दुकानाच्या दारात केळीचे साल पडले होते. 
T4S37: तो ते दुकान जाणे तो आधी दुकान दार केळं साल पडणे 

T3S38: त्या सालीवरून एका व्यक्तीस या माणसाने पडता पडता वाचवले व त्याच्या हातातील वस्तूचे पण काही नुकसान झाले नाही. 
T4S38: ती साल वर एक व्यक्ती हा माणूस पडणे वाचवणे3 व तो हात तील वस्तू पण काही नुकसान होणे 

T3S39: तो व्यक्ती जेव्हा या माणसाचे आभार मानत होता हे त्या दुकानाच्या मालकाने पाहिले, 
T4S39: तो व्यक्ती जेव्हा हा माणूस आभार मानणे हे ते दुकान मालक पाहणे 

T3S40: त्याला हा माणूस कोणीतरी मोठा व्यक्ती आहे असे वाटले. 
T4S40: तो हा माणूस कोणी तरी मोठा व्यक्ती आहे असा वाटणे1

T3S41: हा माणूस दुकानात जातो. 
T4S41: हा माणूस दुकान जाणे  

T3S42: त्याने आत पाय ठेवल्यावर दरवाज्यावर चौकीदार त्याला करतो.  
T4S42: तो आत पाय ठेवणे वर दरवाजा वर चौकीदार तो करणे

T3S43: आणि मग मालक पण त्या माणसाच्या मागे येतो.  
T4S43: आणि मग मालक पण तो माणूस मागे येणे

T3S44: जिथे जिथे हा माणूस जात होता तिथे तिथे तो मालक जात होता. 
T4S44: जिथे हा माणूस जाणे तिथे तो मालक जाणे

T3S45: नंतर तो माणूस पूर्ण दुकान फिरू लागला, 
T4S45: नंतर तो माणूस पूर्ण दुकान फिरणे लागणे

T3S46: त्याला वेगवेगळ्या प्रकारची माणसे भेटली. 
T4S46: तो वेगवेगळा प्रकार माणूस भेटणे

T3S47: त्यात तर एक जादूगारच होता. 
T4S47: तो तर एक जादूगार होणे

T3S48: त्याला त्याच दुकानात ती चाळीतील स्त्री दिसली. 
T4S48: तो तो दुकान ती चाळ तील स्त्री दिसणे

T3S49: ती वेगवेगळे दागिने घेऊ पाहत होती  
T4S49: ती वेगवेगळा दागिना घेऊपाहणे 

T3S50: तिला कानात घालायचा दागिना घ्यायचा होता, 
T4S50: ती कान घालणे दागिना घेणे 

T3S51:    तिला कळत नव्हते की कोणते घेऊ तर ती त्या माणसाला इशार्‍यांमध्ये विचारत होती.  
T4S51: ती कळणे की कोणता घेणे तर ती तो माणूस इशारा मध्ये विचारणे 

T3S52: तो पुढे जातो त्याला तो जादूगार पुन्हा दिसतो.  
T4S52: तो पुढे जाणे तो तो जादूगार पुन्हा दिसणे 

T3S53: तो व्यक्ती लाकडी काठीचे रूपांतर एका कपड्यात करतो. 
T4S53: ती व्यक्ती लाकडी काठी रूपांतर एक कपडा करणे 

T3S54: हे बघून हा माणूस पण तेच करत असतो. 
T4S54: हे बघणे हा माणूस पण ते करणे असणे

T3S55: त्याला हे जमत नाही आणि त्याच्या हातून ती काठी तुटते. 
T4S55: तो हे जमणे आणि तो हात ती काठी तुटणे

T3S56: तेवढ्यात त्या दुकानाचे मालक त्याच्या मागे येतात. 
T4S56: तेवढा ते दुकान मालक तो मागे येणे

T3S57: मग हा माणूस दुकान मालकाला बघून पळायला लागतो 
T4S57: मग हा माणूस दुकान मालक बघणे पळणे लागणे 

T3S58: व दुकान मालक पण त्याच्या मागे लागतो.     
T4S58: व दुकान मालक पण तो मागे लागणे

T4: ही1 कहाणी एक चाळ राहणे व्यक्ती आहे तिथे सार्वजनिक शौचालय आहे तो माणूस जेव्हा सार्वजनिक शौचालय जाणे तिथे आधी लोकं मध्ये उभा होणे तो नंबर मध्ये उभा राहणे तो नंबर येणे जाणे तरी तो शौचालय जाणे येणे कारण चाळ तील लोकं तो मागे मध्ये येणे पण तो जाणे देणे तो मागे खूप माणूस येणे आणि शौचालय जाणे निघणे जाणे पण हा माणूस तिथे बाहेर उभा होणे तो कोणी जाणे देणे तो सारखा जाणे प्रयत्न करणे असणे आणि कोणी तरी जाणे असणे. अखेर तो शौचालय जाणे आणि आंघोळ करणे तो तो खोली जाणे कपडा घालणे साठी तो तो शर्ट हात घेणे आणि तो वास घेणे तो तो शर्ट घाम वास येणे म्हणून तो ते शर्ट हात बाजू साबण धुणे व सुकणे ठेवणे आणि तो खिडकी उभा राहणे ती चाळ एक चहावाला होणे तो सर्व मध्ये जाणे चहा विकणे असणे तसा तो चहावाला मुलगा हा माणूस खिडकी वर येणे आणि चहा देणे लागणे हा माणूस आधी बरोबर पैसा देणे म्हणून तो चहावाला चहा देणे मग हा माणूस पैसा कमी देणे म्हणून तो चहावाला पण चहा अर्धा देणे तसा तो खिडकी उभा होणे तो खिडकी तून खाली पाहणे तो एक स्त्री दिसणे तसा तो खिडकी तून दुसरा कडे पाहणे तो एक व्यक्ती आपण भरणे चहा कप दाखवणे तसा तो खिडकी तून आकाश कडे पाहणे तर तो तार वर बसणे कावळा दिसणे कावळा पाहणे तो कावळा गोष्ट आठवणे मग तो माणूस चहा कप घर तला काही छोटा वस्तू टाकणे उदा बटण नाणं वगैरे तो मुळे चहा पूर्ण कप भरणे मग तो ते आनंद पिणे मग तो स्वतः तयारी करणे बाहेर निघणे तो रस्ता एक कडे थांबणे तो रस्ता दुसरा कडे एक भिकारी बसणे दिसणे तो तो बघणे आपण पाकीट तून रूपया काढणे वर उडवणे परत पकडणे ते बघणे तो भिकारी पण ते करणे भिकारी कळणे की हा माणूस कडे काही पैसा नाही म्हणून तो लपवणे पैसा काढणे तो तो माणूस चिडवणे लागणे की मी कडे बघणे किती पैसा आहे मग तो माणूस तिथे निघणे जाणे व रस्ता वर चालणे1 लागणे तिथे तो एक ऐतिहासिक वस्तू दुकान दिसणे तो ते दुकान जाणे तो आधी दुकान दार केळं साल पडणे ती साल वर एक व्यक्ती हा माणूस पडणे वाचवणे3 व तो हात तील वस्तू पण काही नुकसान होणे तो व्यक्ती जेव्हा हा माणूस आभार मानणे हे ते दुकान मालक पाहणे तो हा माणूस कोणी तरी मोठा व्यक्ती आहे असा वाटणे1 हा माणूस दुकान जाणे तो आत पाय ठेवणे वर दरवाजा वर चौकीदार तो करणे आणि मग मालक पण तो माणूस मागे येणे जिथे हा माणूस जाणे तिथे तो मालक जाणे नंतर तो माणूस पूर्ण दुकान फिरणे लागणे तो वेगवेगळा प्रकार माणूस भेटणे तो तर एक जादूगार होणे तो तो दुकान ती चाळ तील स्त्री दिसणे ती वेगवेगळा दागिना घेऊपाहणे ती कान घालणे दागिना घेणे ती कळणे की कोणता घेणे तर ती तो माणूस इशारा मध्ये विचारणे तो पुढे जाणे तो तो जादूगार पुन्हा दिसणे ती व्यक्ती लाकडी काठी रूपांतर एक कपडा करणे हे बघणे हा माणूस पण ते करणे असणे तो हे जमणे आणि तो हात ती काठी तुटणे तेवढा ते दुकान मालक तो मागे येणे मग हा माणूस दुकान मालक बघणे पळणे लागणे व दुकान मालक पण तो मागे लागणे 


